<svg xmlns="http://www.w3.org/2000/svg" xmlns:xlink="http://www.w3.org/1999/xlink" width="48" height="48">
  <defs id="acyl-settings">
    <linearGradient x1="0%" y1="0%" x2="0%" y2="100%" id="acyl-gradient">
      <stop offset="0%" style="stop-color:#8FA1B3;stop-opacity:1.000000"/>
    </linearGradient>
    <g id="acyl-filter">
  </g>
    <g id="acyl-drawing">
      <path d="M 36.40625 7 C 36.406188 9.9999725 34.304499 10.056797 31.96875 10.09375 L 7.625 10.09375 C 7.0330035 10.08525 6.5 10.595626 6.5 11.1875 C 6.5 11.779374 7.0330035 12.32097 7.625 12.3125 L 31.96875 12.3125 C 35.382521 12.3125 38.34375 11.347808 38.4375 9.25 L 43.75 9.25 L 43.75 34.34375 C 43.75 35.614803 43.338785 36.602102 42.15625 37.40625 C 41.821928 37.63355 41.41755 37.817897 40.9375 38 C 41.150614 37.467325 41.25 36.882022 41.25 36.21875 L 41.25 13.6875 L 2 13.6875 L 2 35.46875 C 2 38.51966 4.4481547 40.973501 7.5 40.96875 C 17.139776 40.95374 26.798885 41.03034 36.4375 40.96875 C 39.510336 40.94346 41.791703 40.347879 43.40625 39.25 C 45.151268 38.063368 46 36.217045 46 34.34375 L 46 7 L 36.40625 7 z M 23.84375 17.5 C 24.624556 17.5015 25.428687 17.577118 26.21875 17.78125 C 26.23859 17.78635 26.26142 17.77595 26.28125 17.78125 C 31.356485 19.126948 34.376945 24.36227 33.03125 29.4375 C 31.68556 34.512735 26.481485 37.533195 21.40625 36.1875 C 20.359267 35.909893 19.383486 35.446483 18.53125 34.875 C 18.50529 34.96205 18.52896 35.036239 18.5 35.125 C 18.374074 35.510992 18.193567 35.909888 17.9375 36.25 C 17.681435 36.590111 17.33025 36.876705 16.84375 36.96875 C 15.883676 37.150385 15.088052 36.590406 14.4375 36.0625 C 13.786949 35.534593 13.220763 35.060857 12.71875 35 C 12.107233 34.92588 11.806849 35.023196 11.5625 35.1875 C 11.318151 35.351805 11.127038 35.624218 10.71875 35.78125 L 10.4375 35.0625 C 10.571539 35.01095 10.764447 34.804938 11.125 34.5625 C 11.485551 34.32006 12.016098 34.094754 12.78125 34.1875 C 13.655909 34.293519 14.284421 34.932901 14.90625 35.4375 C 15.528078 35.942097 16.104036 36.329137 16.6875 36.21875 C 16.972772 36.16478 17.143569 36.005626 17.3125 35.78125 C 17.481429 35.556873 17.6048 35.224277 17.71875 34.875 C 17.77236 34.710678 17.826669 34.575818 17.875 34.40625 C 15.044804 32.120261 13.664073 28.304454 14.65625 24.5625 C 15.787244 20.297001 19.627397 17.492006 23.84375 17.5 z M 21.59375 19 C 21.33489 19.01646 21.066912 19.057833 20.8125 19.15625 C 19.475869 19.673347 18.826653 21.194621 19.34375 22.53125 C 19.860846 23.86788 21.350869 24.548346 22.6875 24.03125 C 24.024132 23.514154 24.7046 21.992883 24.1875 20.65625 C 23.870374 19.836519 23.13714 19.290554 22.34375 19.09375 C 22.096861 19.03494 21.852609 18.983539 21.59375 19 z M 28.34375 20.75 C 27.759689 20.7452 27.175332 20.946597 26.6875 21.34375 C 25.576078 22.248581 25.407672 23.857331 26.3125 24.96875 C 27.217332 26.080167 28.857333 26.248582 29.96875 25.34375 C 31.080172 24.438918 31.248584 22.79892 30.34375 21.6875 C 29.972629 21.231642 29.468058 20.910691 28.9375 20.78125 C 28.747952 20.73643 28.538438 20.75161 28.34375 20.75 z M 17.9375 24.6875 C 16.506495 24.76625 15.390003 26.0065 15.46875 27.4375 C 15.5475 28.868504 16.78775 29.984997 18.21875 29.90625 C 19.649755 29.8275 20.734997 28.587255 20.65625 27.15625 C 20.59289 26.004742 19.80797 25.092991 18.75 24.8125 C 18.73393 24.8082 18.73491 24.7852 18.71875 24.78125 C 18.476376 24.72199 18.199525 24.67309 17.9375 24.6875 z M 23.84375 25.96875 C 23.378827 25.96265 22.968304 26.248993 22.84375 26.71875 C 22.696825 27.272869 23.039625 27.853074 23.59375 28 C 24.147868 28.146924 24.696827 27.804118 24.84375 27.25 C 24.990675 26.695878 24.64787 26.146928 24.09375 26 C 24.0786 25.996 24.04641 25.97208 24.03125 25.96875 C 23.96408 25.95453 23.910175 25.969623 23.84375 25.96875 z M 28.5 27.53125 C 27.710526 27.58556 26.961851 28.003473 26.5 28.71875 C 25.722584 29.922742 26.108507 31.535086 27.3125 32.3125 C 28.51649 33.089915 30.128833 32.735247 30.90625 31.53125 C 31.68367 30.327258 31.297744 28.746166 30.09375 27.96875 C 29.858598 27.81691 29.600535 27.693095 29.34375 27.625 C 29.32722 27.6206 29.32907 27.5978 29.3125 27.59375 C 29.051368 27.53 28.763158 27.51315 28.5 27.53125 z M 22.21875 29.96875 C 21.128575 30.03172 20.138702 30.79385 19.84375 31.90625 C 19.476438 33.29155 20.302196 34.726435 21.6875 35.09375 C 23.072801 35.461062 24.476443 34.635296 24.84375 33.25 C 25.211063 31.864697 24.385298 30.429811 23 30.0625 C 22.98918 30.0596 22.9796 30.0653 22.96875 30.0625 C 22.711909 29.99959 22.470328 29.95421 22.21875 29.96875 z " id="path-main"/>
    </g>
  </defs>
  <g id="acyl-visual">
    <use id="visible1" transform="translate(24,24) scale(1.00) translate(-24,-24)" style="fill:url(#acyl-gradient)" xlink:href="#acyl-drawing"/>
  </g>
</svg>
