<svg xmlns="http://www.w3.org/2000/svg" xmlns:xlink="http://www.w3.org/1999/xlink" width="48" height="48">
  <defs id="acyl-settings">
    <linearGradient x1="0%" y1="0%" x2="0%" y2="100%" id="acyl-gradient">
      <stop offset="0%" style="stop-color:#8FA1B3;stop-opacity:1.000000"/>
    </linearGradient>
    <g id="acyl-filter">
  </g>
    <g id="acyl-drawing">
      <path d="M 3.84375 6.125 C 2.823171 6.125 2 6.948173 2 7.96875 L 2 38.0625 C 2 39.08308 2.823171 39.875 3.84375 39.875 L 44.15625 39.875 C 45.176828 39.875 46 39.08308 46 38.0625 L 46 9.78125 C 46 8.760672 45.176828 7.9375 44.15625 7.9375 L 15.6875 7.9375 L 14.0625 6.125 L 3.84375 6.125 z M 24.375 11.8125 C 31.281092 11.8125 36.90625 17.24843 36.90625 24 C 36.906248 30.751878 31.281091 36.21875 24.375 36.21875 C 17.46827 36.218749 11.875 30.751819 11.875 24 C 11.874999 17.248427 17.468269 11.8125 24.375 11.8125 z M 24.59375 12.59375 L 23.15625 12.71875 L 21.78125 13.125 L 21.5625 12.8125 L 20.9375 12.90625 L 20.65625 13.1875 L 20.125 13.28125 L 19.65625 13.46875 L 19.53125 13.53125 L 19.46875 13.59375 L 19.25 13.59375 L 19.0625 14 L 18.8125 13.5 L 18.71875 13.71875 L 18.75 14.28125 L 18.34375 14.625 L 18.0625 15.21875 L 18.625 15.21875 L 18.75 14.9375 L 19.15625 15.21875 L 19.5625 15.21875 L 19.5625 14.84375 L 19.0625 14.625 L 18.75 14.8125 L 18.90625 14.6875 C 19.120788 14.539194 19.312744 14.361506 19.53125 14.21875 L 19.96875 14.40625 C 20.300235 14.626402 20.69949 14.811433 21.03125 15.03125 L 21.53125 14.625 L 20.9375 14.40625 L 20.6875 13.90625 L 20.03125 13.8125 L 20.25 13.625 L 20.75 13.5 C 20.889265 13.4338 21.015305 13.427497 21.15625 13.375 L 20.9375 13.59375 L 22.0625 14.375 L 22.0625 14.78125 L 21.65625 15.21875 L 22.25 16.40625 L 22.59375 16.15625 L 23.15625 15.40625 C 23.879567 15.187643 24.505122 14.929316 25.1875 14.625 C 25.22095 14.61005 25.24758 14.60899 25.28125 14.59375 L 25.90625 13.09375 L 24.59375 12.59375 z M 25.1875 14.625 L 25.09375 14.90625 L 25.46875 15.125 L 26.09375 14.78125 L 25.78125 14.4375 L 25.375 14.625 L 25.1875 14.625 z M 30.0625 14.53125 L 29.21875 14.78125 L 28.65625 15.09375 L 28.65625 15.40625 L 27.75 15.9375 L 28 16.75 L 28.4375 16.40625 L 28.75 16.75 L 29.125 17 L 29.34375 16.40625 L 29.21875 16.03125 L 29.34375 15.75 L 29.875 15.3125 L 30.125 15.3125 L 29.875 15.8125 L 29.875 16.25 C 30.084853 16.19417 30.316496 16.18237 30.53125 16.15625 L 29.875 16.59375 L 29.875 16.84375 L 29.21875 17.40625 L 28.53125 17.21875 L 28.53125 16.84375 L 28.21875 17.03125 L 28.3125 17.40625 L 27.8125 17.40625 L 27.53125 17.84375 L 27.1875 18.21875 L 26.59375 18.34375 L 26.9375 18.71875 L 27.03125 19.0625 L 26.59375 19.0625 L 26 19.34375 L 26 20.25 L 26.28125 20.25 L 26.53125 20.5625 L 27.09375 20.25 L 27.3125 19.6875 L 27.71875 19.46875 L 27.8125 19.25 L 28.53125 19.125 L 28.90625 19.46875 L 29.25 19.6875 L 29.03125 20.15625 L 29.4375 20.0625 L 29.5625 19.625 L 29.125 19.125 L 29.34375 19.125 L 29.8125 19.46875 L 29.875 19.96875 L 30.28125 20.4375 L 30.375 19.75 L 30.625 19.65625 C 30.850812 19.885405 30.997313 20.179604 31.1875 20.4375 L 31.875 20.46875 L 32.28125 20.6875 L 32.09375 20.96875 L 31.6875 21.34375 L 31.125 21.34375 L 30.34375 21.0625 L 29.875 21.15625 L 29.625 21.46875 L 28.75 20.59375 L 28.21875 20.46875 L 27.3125 20.5625 L 26.53125 20.78125 C 26.095585 21.264066 25.693608 21.748578 25.28125 22.25 L 24.71875 23.375 L 24.96875 23.625 L 24.59375 24.28125 L 25.03125 25.3125 C 25.419602 25.741941 25.799715 26.164006 26.1875 26.59375 L 26.78125 26.125 L 27 26.40625 L 27.625 26.03125 L 27.84375 26.21875 L 28.4375 26.21875 L 28.8125 26.65625 L 28.625 27.3125 L 29.03125 27.8125 L 28.96875 28.65625 L 29.34375 29.25 L 29.125 29.78125 C 29.10225 30.153083 29.03125 30.50311 29.03125 30.875 C 29.218423 31.378822 29.385755 31.867559 29.5625 32.375 L 29.75 33.1875 L 29.75 33.59375 L 30.0625 33.59375 L 30.5625 33.28125 L 31.125 33.28125 L 32.03125 32.34375 L 31.9375 31.96875 L 32.5 31.46875 L 32.09375 31.03125 L 32.59375 30.59375 L 33.15625 30.25 L 33.34375 30.03125 L 33.1875 29.46875 L 33.1875 28.03125 L 33.59375 27.21875 L 34.15625 26.625 L 34.6875 25.3125 L 34.6875 24.9375 C 34.419946 24.97044 34.136674 25.01246 33.875 25.03125 L 34.40625 24.5 L 35.1875 24 L 35.59375 23.5625 L 35.59375 23.0625 C 35.50233 22.89397 35.404538 22.668532 35.3125 22.5 L 34.96875 22.96875 L 34.6875 22.65625 L 34.28125 22.3125 L 34.28125 21.6875 L 34.71875 22.1875 L 35.28125 22.15625 C 35.520509 22.368577 35.758899 22.539505 35.96875 22.78125 L 36.3125 22.40625 C 36.3125 22.00439 35.813261 20.022569 34.8125 18.34375 C 33.811738 16.665484 32.062497 15.125 32.0625 15.125 L 31.9375 15.34375 L 31.46875 15.84375 L 30.875 15.28125 L 31.46875 15.28125 L 31.75 14.9375 L 30.65625 14.78125 L 30.0625 14.53125 z M 17.3125 14.8125 L 17.09375 15.34375 C 17.09375 15.34375 16.72031 15.41449 16.625 15.4375 C 15.407884 16.533871 12.946333 18.906964 12.375 23.375 C 12.39761 23.478597 12.78125 24.03125 12.78125 24.03125 L 13.71875 24.625 L 14.6875 24.875 L 15.03125 25.34375 L 15.6875 25.8125 L 16.03125 25.78125 L 16.3125 25.84375 L 16.3125 26 L 15.9375 26.90625 L 15.6875 27.25 L 15.78125 27.4375 L 15.53125 28.21875 L 16.34375 29.625 L 17.1875 30.34375 L 17.5 30.78125 L 17.4375 31.84375 L 17.71875 32.40625 L 17.4375 33.5625 C 17.433254 33.571018 17.420515 33.59981 17.4375 33.65625 C 17.47177 33.7692 18.880637 34.532764 18.96875 34.46875 C 19.05655 34.40355 19.15625 34.3125 19.15625 34.3125 L 19.0625 34.09375 L 19.4375 33.71875 L 19.53125 33.40625 L 20.125 33.1875 L 20.5625 32.15625 L 20.4375 31.84375 L 20.75 31.375 L 21.4375 31.25 L 21.78125 30.46875 L 21.6875 29.46875 L 22.1875 28.75 L 22.28125 27.96875 C 21.553586 27.616016 20.847243 27.300673 20.125 26.9375 L 19.75 26.21875 L 19.125 26.09375 L 18.75 25.1875 L 17.84375 25.28125 L 17.09375 24.71875 L 16.3125 25.40625 L 16.3125 25.53125 C 16.071037 25.46313 15.746247 25.441721 15.53125 25.3125 L 15.40625 24.8125 L 15.40625 24.28125 L 14.8125 24.3125 C 14.85689 23.96906 14.955307 23.624632 15 23.28125 L 14.6875 23.28125 L 14.375 23.71875 L 14.0625 23.8125 L 13.59375 23.59375 L 13.5625 23.0625 L 13.65625 22.46875 L 14.3125 21.96875 L 14.8125 21.96875 L 14.96875 21.6875 L 15.59375 21.84375 L 16.09375 22.40625 L 16.1875 21.46875 L 17.03125 20.75 L 17.3125 20.03125 L 17.9375 19.78125 L 18.3125 19.28125 L 19.125 19.125 L 19.53125 18.5625 L 18.3125 18.5625 L 19.0625 18.21875 L 19.5625 18.21875 L 20.34375 17.96875 L 20.4375 17.65625 L 20.15625 17.4375 L 19.84375 17.3125 L 19.9375 17.03125 L 19.71875 16.59375 L 19.21875 16.75 L 19.3125 16.40625 L 18.65625 16.03125 L 18.15625 16.84375 L 18.21875 17.15625 L 17.71875 17.34375 L 17.40625 17.96875 L 17.3125 17.4375 L 16.4375 17.0625 L 16.3125 16.625 L 17.40625 16 L 17.90625 15.53125 L 17.9375 15 L 17.65625 14.84375 L 17.3125 14.8125 z M 26.40625 15.8125 L 26.40625 16.125 L 26.625 16.34375 L 26.625 16.84375 L 26.5 17.53125 L 27.09375 17.40625 L 27.4375 17.03125 L 27.09375 16.65625 C 26.976803 16.351812 26.865127 16.104498 26.71875 15.8125 L 26.40625 15.8125 z M 25.8125 16.59375 L 25.5 16.65625 L 25.59375 17.25 L 26.03125 17.0625 L 25.8125 16.59375 z M 32.15625 21.90625 L 32.6875 22.5 L 33.28125 23.8125 L 33.65625 24.1875 L 33.5 24.625 L 33.8125 25.03125 C 33.652156 25.0418 33.508624 25.09375 33.34375 25.09375 C 33.05291 24.496333 32.815228 23.906247 32.59375 23.28125 L 32.25 22.8125 L 32.03125 22.0625 L 32.15625 21.90625 z " id="path-main"/>
    </g>
  </defs>
  <g id="acyl-visual">
    <use id="visible1" transform="translate(24,24) scale(1.00) translate(-24,-24)" style="fill:url(#acyl-gradient)" xlink:href="#acyl-drawing"/>
  </g>
</svg>
