<svg xmlns="http://www.w3.org/2000/svg" xmlns:xlink="http://www.w3.org/1999/xlink" width="48" height="48">
  <defs id="acyl-settings">
    <linearGradient x1="0%" y1="0%" x2="0%" y2="100%" id="acyl-gradient">
      <stop offset="0%" style="stop-color:#8FA1B3;stop-opacity:1.000000"/>
    </linearGradient>
    <g id="acyl-filter">
  </g>
    <g id="acyl-drawing">
      <path d="M 29.40625 2 L 21.0625 35.40625 C 21.0625 35.40625 18.165091 32.657546 12.65625 32.875 C 7.1474082 33.092454 1.710061 36.208232 2 39.6875 C 2.289939 43.166768 7.5185212 45.927516 12.375 46 C 17.231478 46.07249 23.036433 43.892911 23.90625 39.90625 C 24.776067 35.919589 28.625 9.84375 28.625 9.84375 C 28.625 9.84375 30.005183 12.953963 30.875 13.96875 C 31.744817 14.983536 35.730031 19.556784 35.875 22.09375 C 36.01997 24.630716 34.932318 27.37279 34.0625 28.75 C 37.324314 24.763339 37.719597 23.965548 37.6875 21.71875 C 37.61501 16.644818 30.058613 11.930411 29.40625 2 z M 31.46875 30.84375 C 31.343149 30.86772 31.247747 30.997153 31.25 31.125 L 31.25 45.75 C 31.249159 45.8443 31.293565 45.92126 31.375 45.96875 C 31.45643 46.01625 31.543347 46.01602 31.625 45.96875 L 44.3125 38.65625 C 44.39611 38.60997 44.4375 38.533066 44.4375 38.4375 C 44.4375 38.34193 44.396111 38.233781 44.3125 38.1875 L 31.625 30.90625 C 31.5707 30.87394 31.530946 30.83262 31.46875 30.84375 z " id="path-main"/>
    </g>
  </defs>
  <g id="acyl-visual">
    <use id="visible1" transform="translate(24,24) scale(1.00) translate(-24,-24)" style="fill:url(#acyl-gradient)" xlink:href="#acyl-drawing"/>
  </g>
</svg>
