<svg xmlns="http://www.w3.org/2000/svg" xmlns:xlink="http://www.w3.org/1999/xlink" width="48" height="48">
  <defs id="acyl-settings">
    <linearGradient x1="0%" y1="0%" x2="0%" y2="100%" id="acyl-gradient">
      <stop offset="0%" style="stop-color:#8FA1B3;stop-opacity:1.000000"/>
    </linearGradient>
    <g id="acyl-filter">
  </g>
    <g id="acyl-drawing">
      <path d="m 16.428876,2.349912 c -0.11223,-0.0015 -0.239096,0.01235 -0.367351,0.076 L 5.6743604,7.847506 a 0.22699317,0.22699317 0 0 0 -0.01267,0 c -0.147846,0.08086 -0.247551,0.21764 -0.316682,0.367351 -0.0026,0.0055 -0.01025,0.0071 -0.01267,0.01267 l -3.2554895,6.992335 c -0.1593672,0.318665 -0.058718,0.685201 0.1900091,0.924711 l -0.012667,0.01267 18.240875,25.347217 1.507406,-2.40679 -7.929714,-15.542739 10.77985,0 c -0.06949,-0.306101 -0.298933,-0.561742 -0.633363,-0.6967 l -2.267442,-0.912043 -8.031052,0 3.20482,-8.449072 12.945954,0 3.204821,8.449072 -1.330064,0 c 0.13743,0.525258 0.222764,1.068247 0.253345,1.608743 l 0.924711,0 -1.051383,2.077433 1.178056,1.178057 1.786086,-3.496168 5.788945,-4.192867 -0.608029,0.848707 0.152007,-0.152007 c 0.764788,-0.764786 1.773593,-1.169529 2.786801,-1.178057 l 1.786085,-2.482786 -0.01265,-0.01267 c 0.248729,-0.23951 0.349378,-0.606046 0.190009,-0.924711 L 41.864784,8.227527 c -0.0012,-0.003 0.0012,-0.0097 0,-0.01267 l -0.01265,0 C 41.782984,8.065148 41.683296,7.928362 41.535452,7.847506 a 0.22699317,0.22699317 0 0 0 -0.01265,0 L 31.135642,2.425915 c -0.128277,-0.06367 -0.25517,-0.07754 -0.367351,-0.076 -0.0042,-2.23e-4 -0.0085,1.59e-4 -0.01267,0 -0.02085,-8.11e-4 -0.04248,-8.11e-4 -0.06334,0 -0.0042,1.09e-4 -0.0084,-1.09e-4 -0.01267,0 -4.716817,0.121473 -9.438762,0.05559 -14.162012,0 -0.0042,-5e-5 -0.0084,4.9e-5 -0.01267,0 -0.02085,-8.11e-4 -0.04248,-8.11e-4 -0.06334,0 l -0.01267,0 z m 0.316682,1.596076 c 4.574853,0.118404 9.137408,0.05508 13.705991,0 l 4.522216,4.64889 -4.636222,3.306158 -13.47798,0 -4.636222,-3.306158 4.522217,-4.64889 z m -4.344875,2.191439 -1.938093,2.001429 -0.01267,0 0,0.01267 -0.01267,0 L 5.0156574,12.68641 6.6624034,9.139574 12.400678,6.13743 z m 22.395741,0 5.738276,3.002144 1.646746,3.546836 -5.434262,-4.534884 -0.01267,-0.01267 -1.938092,-2.001429 z m -23.725805,3.584838 4.547552,3.268157 -3.230155,8.499741 -8.2843976,-5.966286 6.9670006,-5.801612 z m 25.055868,0 6.967002,5.801612 -8.284398,5.966286 -3.230155,-8.499741 4.547551,-3.268157 z m -11.945239,7.499026 c -1.762026,-0.0012 -3.507949,0.657812 -4.851566,2.00143 -0.08233,0.08233 -0.175969,0.180735 -0.253346,0.266012 l 5.598936,2.254775 c 1.137226,0.458923 1.687648,1.738245 1.228725,2.875472 l -0.532025,1.317396 c -0.458923,1.137227 -1.750913,1.687647 -2.888139,1.228726 l -5.104911,-2.064766 c 0.208055,1.414302 0.862932,2.775691 1.95076,3.863514 1.817114,1.81712 4.402144,2.38845 6.713655,1.74809 l 14.250685,14.26335 c 1.221283,1.22128 3.186932,1.22128 4.408211,0 l 0.304015,-0.30402 c 1.221279,-1.22127 1.221287,-3.18692 0,-4.40821 L 30.793565,26.050381 c 0.692801,-2.3407 0.112055,-4.96752 -1.735417,-6.814993 -1.343617,-1.343618 -3.114874,-2.01287 -4.8769,-2.014097 z M 6.3710604,19.121383 12.160005,23.31425 18.898995,36.55155 6.3710604,19.121383 z m 36.8237666,0.722034 c -0.71507,-0.0011 -1.427607,0.274889 -1.976094,0.823373 l -7.043006,7.030337 1.089386,1.089383 7.372354,-7.372351 c 0.115068,-0.115067 0.29029,-0.115067 0.405353,0 0.115068,0.115067 0.115068,0.302954 0,0.41802 l -7.372355,7.372351 0.975381,0.95005 7.359687,-7.359688 c 0.115063,-0.115067 0.31562,-0.115069 0.430687,0 0.115068,0.115067 0.115068,0.302953 0,0.41802 l -7.372354,7.372358 1.076718,1.06405 7.043006,-7.017673 c 1.096969,-1.096968 1.084282,-2.867888 -0.01265,-3.964857 -0.548487,-0.548483 -1.261025,-0.822294 -1.976095,-0.823373 z m -15.454075,14.276023 -0.734702,1.4314 1.026049,-1.02605 a 1.2045488,1.2045488 0 0 1 0.05067,-0.0633 l -0.342016,-0.34201 z m 1.140055,1.25406 -3.306159,3.30615 -2.153437,0.41802 -3.4835,5.58627 1.216058,1.21606 5.598935,-3.4835 0.418021,-2.15344 3.306158,-3.30616 -1.596076,-1.5834 z m 13.61732,5.43426 c 0.426448,0 0.852688,0.15598 1.178057,0.48135 0.650729,0.65073 0.650729,1.70538 0,2.35612 -0.650737,0.65073 -1.705384,0.65072 -2.356113,0 -0.650737,-0.65074 -0.650737,-1.70538 0,-2.35612 0.325368,-0.32536 0.751609,-0.48135 1.178056,-0.48135 z" id="path-main"/>
    </g>
  </defs>
  <g id="acyl-visual">
    <use id="visible1" transform="translate(24,24) scale(1.00) translate(-24,-24)" style="fill:url(#acyl-gradient)" xlink:href="#acyl-drawing"/>
  </g>
</svg>
