<svg xmlns="http://www.w3.org/2000/svg" xmlns:xlink="http://www.w3.org/1999/xlink" width="48" height="48">
  <defs id="acyl-settings">
    <linearGradient x1="0%" y1="0%" x2="0%" y2="100%" id="acyl-gradient">
      <stop offset="0%" style="stop-color:#8FA1B3;stop-opacity:1.000000"/>
    </linearGradient>
    <g id="acyl-filter">
  </g>
    <g id="acyl-drawing">
      <path d="m 22.209262,2 0,17.688241 L 14.675815,12.268004 12,14.835005 21.344769,24.100274 12,33.285324 14.675815,36.052872 22.209262,28.632635 22.209262,46 36,33.405652 26.943397,24.100274 36,15.476755 22.209262,2 z m 3.169812,6.8587058 6.051458,6.6180492 -6.051458,5.976299 0,-12.5943482 z m 0,18.1695532 6.051458,6.618049 -6.051458,5.976299 0,-12.594348 z" id="path-main"/>
    </g>
  </defs>
  <g id="acyl-visual">
    <use id="visible1" transform="translate(24,24) scale(1.00) translate(-24,-24)" style="fill:url(#acyl-gradient)" xlink:href="#acyl-drawing"/>
  </g>
</svg>
