<svg xmlns="http://www.w3.org/2000/svg" xmlns:xlink="http://www.w3.org/1999/xlink" width="48" height="48">
  <defs id="acyl-settings">
    <linearGradient x1="0%" y1="0%" x2="0%" y2="100%" id="acyl-gradient">
      <stop offset="0%" style="stop-color:#8FA1B3;stop-opacity:1.000000"/>
    </linearGradient>
    <g id="acyl-filter">
  </g>
    <g id="acyl-drawing">
      <path d="M 10.339462,2 37.660537,2 C 42.271987,2 46,5.7923807 46,10.483453 l 0,27.033094 C 46,42.207619 42.271987,46 37.660537,46 L 10.339462,46 C 5.7280122,46 2,42.207619 2,37.516547 L 2,10.483453 C 2,5.7923807 5.7280122,2 10.339462,2 z m 14.345121,6.7741007 c -0.108962,0.066146 -0.254558,0.1414888 -0.435644,0.2532374 -0.362172,0.2235175 -0.845235,0.5526554 -1.4314,0.9179858 -1.17233,0.7306611 -2.713565,1.6759451 -4.231966,2.6273381 -3.036803,1.902796 -6.036775,3.798561 -6.036775,3.798561 l -0.217822,0.126619 0,0.284892 0,14.434532 -6.5968883,8.831655 c -0.036084,0.404117 -0.5450571,1.108893 0.6534653,0.728057 l 12.19802,-5.697841 13.224894,-0.158274 c 2.608192,-3.67651 4.890291,-7.649826 7.281471,-11.490647 l -0.03112,-0.06331 0,-14.1496408 0,-0.5064749 -0.497878,0 -10.082037,0 c -0.327426,0.3376496 -0.791556,0.6753001 0,1.0129499 l 9.584158,0 0,13.2633088 -10.673267,7.438849 -9.584158,0 0,-11.332374 7.717114,-9.6863308 C 25.71825,8.8480531 25.365798,8.705443 24.902402,8.647482 c -0.08137,0.04143 -0.10886,0.060473 -0.217821,0.1266187 z m 3.82744,11.8705033 2.364922,-2.152518 2.738331,5.571223 1.867044,-1.012949 -2.489392,-5.064748 3.111739,-0.506475 -7.592644,-7.343885 z m -5.570015,-9.623021 c -1.123064,0.700546 -2.442426,1.537941 -3.827439,2.405755 -2.910554,1.823695 -5.555409,3.494261 -5.787836,3.640288 l 0,13.358273 3.485148,0 0,-11.490647 0,-0.158273 0.09335,-0.158274 z m 13.75389,14.117985 -8.868458,6.204317 -0.12447,0.09496 -0.155587,0 -9.739745,0 0,1.614388 12.758133,-0.03165 0.653465,0 z m -19.884017,6.299281 0,1.614388 -8.7128711,5.476259 5.1032531,-6.83741 0.12447,-0.126618 0,-0.126619 z" id="path-main"/>
    </g>
  </defs>
  <g id="acyl-visual">
    <use id="visible1" transform="translate(24,24) scale(1.00) translate(-24,-24)" style="fill:url(#acyl-gradient)" xlink:href="#acyl-drawing"/>
  </g>
</svg>
