<svg xmlns="http://www.w3.org/2000/svg" xmlns:xlink="http://www.w3.org/1999/xlink" width="48" height="48">
  <defs id="acyl-settings">
    <linearGradient x1="0%" y1="0%" x2="0%" y2="100%" id="acyl-gradient">
      <stop offset="0%" style="stop-color:#8FA1B3;stop-opacity:1.000000"/>
    </linearGradient>
    <g id="acyl-filter">
  </g>
    <g id="acyl-drawing">
      <path id="path-main" d="m 10.902374,5.0933422 c -0.693494,1.1505692 0.54076,11.1613958 0.59375,13.1018288 -1.273859,0.662726 -8.7235908,3.10735 -9.3377026,4.230844 -0.6088606,1.113887 -0.3817196,12.552965 0.21875,13.749781 0.6004696,1.196816 11.1749396,6.487822 12.5937496,6.489141 1.395644,0.0013 5.4454,-2.64527 6.625,-3.625 0.09846,1.051496 -0.132541,1.118924 0.09484,1.631515 0.23435,0.528301 11.552238,4.606622 13.214406,4.382602 1.662168,-0.22402 9.674698,-7.11743 10.065758,-8.307071 0.39106,-1.189641 1.322791,-13.486182 0.507601,-14.576616 -0.81519,-1.090434 -6.375319,-1.69449 -8.882601,-2.312899 0.110478,-0.03926 0.265086,-0.06486 0.385618,-0.207288 C 37.102075,19.507755 38.031929,5.6272489 37.424468,4.689194 36.817007,3.7511391 24.780263,2.8077996 23.455639,2.795585 22.131015,2.7833704 11.595868,3.942773 10.902374,5.0933422 z M 23.455639,3.795585 c 1.09387,0.018819 11.398843,0.8402024 11.406329,1.487359 0.0075,0.6471566 -5.340466,1.8726143 -8.175755,2.4025791 -0.780265,0.145845 -0.981907,1.763934 -1.83785,14.0371209 C 24.6874,9.4398462 24.514269,7.8674182 23.866362,7.7869636 20.949994,7.4248201 13.933868,6.4771596 13.839874,5.7183422 13.74588,4.9595248 22.361769,3.7767663 23.455639,3.795585 z M 11.509481,18.979197 c 0.04006,1.1467 0.124761,1.872582 0.675846,2.576908 0.551086,0.704326 7.442965,1.681764 9.125057,2.577582 -0.796921,0.557444 -3.932745,1.851488 -5.664259,2.479635 -0.593108,0.215164 -0.531993,5.39869 -0.717583,13.930022 C 14.418629,32.256142 13.973459,26.874521 13.383678,26.709749 10.514907,25.908277 3.3695266,23.515262 3.3146714,23.019765 3.2598162,22.524268 10.584858,19.437819 11.509481,18.979197 z m 23.93019,1.534521 c 1.018047,0.233442 9.130002,1.950859 9.163851,2.406649 0.03385,0.45579 -6.433289,3.794872 -9.016736,5.02084 -0.575653,0.273175 -0.5111,6.874806 -0.663553,13.970133 C 34.539121,34.273076 34.099618,28.3327 33.586503,28.239508 30.621182,27.700949 22.08726,25.824364 22.064671,25.383687 c -0.02259,-0.440677 0.264439,-0.53895 0.672383,-0.88407 0.850227,0.228207 0.908569,0.371585 2.67439,0.330144 1.765822,-0.04144 8.593191,-3.622839 10.028227,-4.316043 z"/>
    </g>
  </defs>
  <g id="acyl-visual">
    <use id="visible1" transform="translate(24,24) scale(1.00) translate(-24,-24)" style="fill:url(#acyl-gradient)" xlink:href="#acyl-drawing"/>
  </g>
</svg>
