<svg xmlns="http://www.w3.org/2000/svg" xmlns:xlink="http://www.w3.org/1999/xlink" width="48" height="48">
  <defs id="acyl-settings">
    <linearGradient x1="0%" y1="0%" x2="0%" y2="100%" id="acyl-gradient">
      <stop offset="0%" style="stop-color:#8FA1B3;stop-opacity:1.000000"/>
    </linearGradient>
    <g id="acyl-filter">
  </g>
    <g id="acyl-drawing">
      <path d="M 11.511472,2 C 9.891563,2 8.587,3.304563 8.587,4.924471 l 0,38.151059 C 8.587,44.69544 9.891563,46 11.511471,46 l 22.970393,0 c 1.619909,0 2.924471,-1.30456 2.924471,-2.92447 l 0,-13.186708 -4.612688,4.612688 a 0.94840983,0.94840983 0 0 1 -0.451964,0.26586 c -0.01326,0.0403 0.0051,0.0975 -0.01329,0.13293 -0.01907,0.0367 -0.0458,0.0602 -0.06647,0.0931 l 0.82417,0 c 1.0028,0 1.807855,0.81835 1.807855,1.82115 l 0,1.80786 c 0,1.00279 -0.805055,1.80785 -1.807855,1.80785 l -13.917825,0 c -1.0028,0 -1.807855,-0.80506 -1.807855,-1.80785 l 0,-1.80786 c 0,-1.0028 0.805055,-1.82115 1.807855,-1.82115 l 4.87855,0 0.877341,-2.11359 -5.755891,0 c -1.0028,0 -1.807855,-0.80506 -1.807855,-1.80786 l 0,-1.807852 c 0,-1.0028 0.805055,-1.821148 1.807855,-1.821148 l 9.318429,0 2.113595,-2.113595 -11.432024,0 c -1.0028,0 -1.807855,-0.818347 -1.807855,-1.821148 l 0,-1.807855 c 0,-1.0028 0.805055,-1.807855 1.807855,-1.807855 l 13.917825,0 c 0.800207,0 1.475644,0.517703 1.714803,1.236254 l 0.34562,-0.345619 a 0.94840983,0.94840983 0 0 1 0.30574,-0.212689 0.94840983,0.94840983 0 0 1 0.225982,-0.34562 l 1.728096,-1.714803 0,-13.585499 c 0,-1.619908 -1.304563,-2.924471 -2.924471,-2.924471 l -22.970393,0 z m 0.558308,2.778248 1.807855,0 c 1.002801,0 1.807855,0.818347 1.807855,1.821148 l 0,1.807855 c 0,1.0028 -0.805054,1.807855 -1.807855,1.807855 l -1.807855,0 c -1.002799,0 -1.807856,-0.805055 -1.807856,-1.807855 l 0,-1.807855 c 0,-1.002801 0.805057,-1.821148 1.807856,-1.821148 z m 7.098489,0 13.917825,0 c 1.0028,0 1.807856,0.818347 1.807856,1.821148 l 0,1.807855 c 0,1.0028 -0.805056,1.807855 -1.807856,1.807855 l -13.917825,0 c -1.0028,0 -1.807855,-0.805055 -1.807855,-1.807855 l 0,-1.807855 c 0,-1.002801 0.805055,-1.821148 1.807855,-1.821148 z m -7.098489,7.563746 1.807855,0 c 1.002801,0 1.807855,0.805054 1.807855,1.807855 l 0,1.807855 c 0,1.0028 -0.805054,1.821148 -1.807855,1.821148 l -1.807855,0 c -1.002799,0 -1.807856,-0.818348 -1.807856,-1.821148 l 0,-1.807855 c 0,-1.002801 0.805057,-1.807855 1.807856,-1.807855 z m 7.098489,0 13.917825,0 c 1.0028,0 1.807856,0.805054 1.807856,1.807855 l 0,1.807855 c 0,1.0028 -0.805056,1.821148 -1.807856,1.821148 l -13.917825,0 c -1.0028,0 -1.807855,-0.818348 -1.807855,-1.821148 l 0,-1.807855 c 0,-1.002801 0.805055,-1.807855 1.807855,-1.807855 z m 19.78006,6.287613 c -0.218431,0.01822 -0.44252,0.123488 -0.624773,0.30574 l -1.980665,1.967372 4.360121,4.360121 1.980665,-1.967372 c 0.364506,-0.364505 0.410281,-0.905733 0.106344,-1.209667 l -3.256796,-3.256798 c -0.151972,-0.151968 -0.366464,-0.21762 -0.584896,-0.199396 z m -26.87855,1.26284 1.807855,0 c 1.002801,0 1.807855,0.805055 1.807855,1.807855 l 0,1.807855 c 0,1.002801 -0.805054,1.821148 -1.807855,1.821148 l -1.807855,0 c -1.002799,0 -1.807855,-0.818347 -1.807855,-1.821148 l 0,-1.807855 c 0,-1.0028 0.805056,-1.807855 1.807855,-1.807855 z m 23.74139,1.555287 -2.632024,2.632024 4.346828,4.360121 2.645317,-2.632024 -4.360121,-4.360121 z m -3.163746,3.163746 -4.87855,4.87855 4.360121,4.34683 4.865257,-4.865259 -4.346828,-4.360121 z m -20.577644,2.83142 1.807855,0 c 1.002801,0 1.807855,0.818348 1.807855,1.821148 l 0,1.807852 c 0,1.0028 -0.805054,1.80786 -1.807855,1.80786 l -1.807855,0 c -1.002799,0 -1.807855,-0.80506 -1.807855,-1.80786 l 0,-1.807852 c 0,-1.0028 0.805056,-1.821148 1.807855,-1.821148 z m 15.154079,2.671904 c -0.102952,0.0066 -0.189356,0.104432 -0.239275,0.225986 l -2.738368,6.67311 c -0.170971,0.41629 -0.04847,0.5528 0.358912,0.3855 l 6.619939,-2.72508 c 0.26149,-0.10739 0.363957,-0.3007 0.225982,-0.43867 l -4.027794,-4.027795 c -0.06967,-0.06967 -0.137625,-0.09699 -0.199396,-0.09305 z m -15.154079,4.878546 1.807855,0 c 1.002801,0 1.807855,0.81835 1.807855,1.82115 l 0,1.80786 c 0,1.00279 -0.805054,1.80785 -1.807855,1.80785 l -1.807855,0 c -1.002799,0 -1.807855,-0.80506 -1.807855,-1.80785 l 0,-1.80786 c 0,-1.0028 0.805056,-1.82115 1.807855,-1.82115 z" id="path-main"/>
    </g>
  </defs>
  <g id="acyl-visual">
    <use id="visible1" transform="translate(24,24) scale(1.00) translate(-24,-24)" style="fill:url(#acyl-gradient)" xlink:href="#acyl-drawing"/>
  </g>
</svg>
