<svg xmlns="http://www.w3.org/2000/svg" xmlns:xlink="http://www.w3.org/1999/xlink" width="48" height="48">
  <defs id="acyl-settings">
    <linearGradient x1="0%" y1="0%" x2="0%" y2="100%" id="acyl-gradient">
      <stop offset="0%" style="stop-color:#8FA1B3;stop-opacity:1.000000"/>
    </linearGradient>
    <g id="acyl-filter">
  </g>
    <g id="acyl-drawing">
      <path d="m 32.473598,3.6188571 -8.010992,7.5012609 12.366266,7.343576 8.823375,-6.96063 L 32.473598,3.6188571 z M 15.097645,4.0018042 2.4605841,11.931063 10.62954,18.48622 22.747577,10.804748 15.097645,4.0018042 z M 11.035732,19.004325 2.3477532,26.212743 15.639231,34.637581 23.401997,27.001163 11.035732,19.004325 z m 26.063935,0.382947 -12.253434,7.74905 8.304353,7.501259 12.501661,-8.289681 -8.55258,-6.960628 z M 24.598003,29.59662 24.32721,43.923351 36.828872,35.768828 36.693474,34.59746 32.879792,37.345669 24.598003,29.59662 z m -1.331402,0.518105 -7.514538,7.636418 -4.851728,-3.671789 -0.135398,2.094948 12.388831,7.50126 0.112833,-13.560837 z" id="path-main"/>
    </g>
  </defs>
  <g id="acyl-visual">
    <use id="visible1" transform="translate(24,24) scale(1.00) translate(-24,-24)" style="fill:url(#acyl-gradient)" xlink:href="#acyl-drawing"/>
  </g>
</svg>
