<svg xmlns="http://www.w3.org/2000/svg" xmlns:xlink="http://www.w3.org/1999/xlink" width="48" height="48">
  <defs id="acyl-settings">
    <linearGradient x1="0%" y1="0%" x2="0%" y2="100%" id="acyl-gradient">
      <stop offset="0%" style="stop-color:#8FA1B3;stop-opacity:1.000000"/>
    </linearGradient>
    <g id="acyl-filter">
  </g>
    <g id="acyl-drawing">
      <path d="M 4.78125,6 C 4.3452053,6 4,6.3388679 4,6.75 L 4,34.0625 C 4,34.473647 4.3452051,34.8125 4.78125,34.8125 L 21.15625,34.8125 L 21.15625,39.125 L 17.21875,39.125 C 17.017195,39.125 16.84375,39.296838 16.84375,39.5 L 16.84375,41.625 C 16.84375,41.828109 17.017195,42 17.21875,42 L 30.78125,42 C 30.982806,42 31.15625,41.828108 31.15625,41.625 L 31.15625,39.5 C 31.15625,39.296837 30.982806,39.124999 30.78125,39.125 L 26.84375,39.125 L 26.84375,34.8125 L 43.21875,34.8125 C 43.654789,34.8125 44,34.473645 44,34.0625 L 44,6.75 C 44,6.3388678 43.654791,6 43.21875,6 L 4.78125,6 z M 7.15625,12.0625 L 17.625,12.0625 C 18.2637,12.0625 18.812501,12.671651 18.8125,13.40625 L 18.8125,17.21875 C 25.372033,17.21875 31.909455,17.218652 38.46875,17.21875 L 41.96875,19.71875 C 41.988193,19.742 42,19.751675 42,19.78125 C 42,19.810825 41.988194,19.85175 41.96875,19.875 C 40.81676,20.66753 39.541394,21.525318 38.34375,22.3125 C 37.711133,21.569836 37.021266,20.769308 36.40625,19.96875 L 34.40625,22.3125 C 33.693729,21.59837 32.889908,20.731146 32.1875,19.96875 L 29.96875,22.3125 C 29.220488,21.550167 28.422479,20.801305 27.71875,19.96875 L 25.4375,22.3125 C 24.724699,21.561488 23.950448,20.770919 23.25,19.96875 L 21.03125,22.3125 C 20.284773,22.3125 19.559112,22.312502 18.8125,22.3125 L 18.8125,26.1875 C 18.8125,26.922098 18.263701,27.5 17.625,27.5 L 7.15625,27.5 C 6.5175504,27.5 6,26.9221 6,26.1875 L 6,13.40625 C 6,12.671652 6.5175493,12.0625 7.15625,12.0625 z M 9.5625,15.28125 C 9.3700349,15.28125 9.21875,15.633983 9.21875,16.0625 L 9.21875,23.5 C 9.21875,23.928517 9.3700346,24.281249 9.5625,24.28125 L 12.71875,24.28125 C 12.911215,24.28125 13.0625,23.928517 13.0625,23.5 L 13.0625,16.0625 C 13.0625,15.633983 12.911215,15.28125 12.71875,15.28125 L 9.5625,15.28125 z" id="path-main"/>
    </g>
  </defs>
  <g id="acyl-visual">
    <use id="visible1" transform="translate(24,24) scale(1.00) translate(-24,-24)" style="fill:url(#acyl-gradient)" xlink:href="#acyl-drawing"/>
  </g>
</svg>
