<svg xmlns="http://www.w3.org/2000/svg" xmlns:xlink="http://www.w3.org/1999/xlink" width="48" height="48">
  <defs id="acyl-settings">
    <linearGradient x1="0%" y1="0%" x2="0%" y2="100%" id="acyl-gradient">
      <stop offset="0%" style="stop-color:#8FA1B3;stop-opacity:1.000000"/>
    </linearGradient>
    <g id="acyl-filter">
  </g>
    <g id="acyl-drawing">
      <path d="m 13.45283,2.0128213 c -1.245343,0.239924 -2.123295,1.3233297 -2.121916,2.5929942 l 0,1.5308038 -6.3345425,0 C 3.5497053,6.1366191 2.5,7.1547279 2.5,8.6046499 l 0,32.3968071 c 0,1.449923 1.0481315,2.499271 2.4963715,2.499271 l 10.2039185,0 C 15.332496,44.95589 16.474922,46 17.977503,46 l 24.714078,0 C 44.28879,46.000002 45.5,44.818628 45.5,43.21956 l 0,-22.618407 c -1e-5,-1.599068 -1.21121,-2.780439 -2.808419,-2.780439 l -2.683598,0 0,-9.2160641 c 0,-1.449922 -1.049705,-2.4680306 -2.496372,-2.4680306 l -5.523222,0 0,-1.5308038 C 31.963925,3.154501 30.785797,2.0015146 29.335994,2.0128213 l -15.352685,0 c -0.172887,-0.017095 -0.326387,-0.017095 -0.499274,0 l -0.0312,0 z m 0.624093,2.6867168 15.165457,0 0,4.9048204 0,0.031241 0.0312,0.031241 2.246734,2.2493445 -19.721335,0 2.246735,-2.2493445 0.0312,-0.031241 0,-0.031241 0,-4.9048204 z M 9.7082733,12.416039 a 3.4952696,3.49933 0 0 1 0.3432507,0 l 24.58926,0 a 3.4952696,3.49933 0 1 1 0,6.99796 l -21.09434,0 0,15.932856 3.432511,0 0,-3.655184 a 3.4952696,3.49933 0 0 1 0,-6.748034 l 0,-4.342484 c 1e-6,-0.599651 0.399594,-0.999708 0.998548,-0.999708 l 24.714078,0 c 0.598951,-10e-7 0.998549,0.400059 0.998549,0.999708 l 0,22.399721 0.218433,0 c 0,0.599653 -0.399589,0.999709 -0.998548,0.999709 l -24.932512,0 c -0.598953,2e-6 -0.998548,-0.400058 -0.998548,-0.999709 l 0,-0.656059 -6.927431,0 a 3.4952696,3.49933 0 0 1 -3.4949203,-3.49898 l 0,-22.930816 a 3.4952696,3.49933 0 0 1 3.1516696,-3.49898 z m 0.1872275,1.999417 A 1.4979727,1.4997129 0 0 0 8.553701,15.915019 l 0,22.930816 a 1.4979727,1.4997129 0 0 0 1.497823,1.499563 l 24.58926,0 a 1.4979727,1.4997129 0 0 0 1.497823,-1.499563 l 0,-10.528181 a 1.4979727,1.4997129 0 0 0 -1.497823,-1.499563 l -16.694485,0 a 1.4979727,1.4997129 0 1 0 0,2.999126 l 15.196662,0 0,7.529055 -21.593614,0 0,-19.93169 23.091437,0 a 1.4979727,1.4997129 0 1 0 0,-2.999126 l -24.58926,0 a 1.4979727,1.4997129 0 0 0 -0.1560232,0 z m 12.2634252,9.997086 0,0.406132 12.481858,0 a 3.4952696,3.49933 0 0 1 3.370101,2.592994 l 1.092163,0 0,-2.999126 -16.944122,0 z m 15.976778,5.998252 0,2.81168 0.967344,0 0,-2.81168 -0.967344,0 z m -15.976778,1.40584 0,1.40584 8.986938,0 0,-1.40584 -8.986938,0 z m 15.976778,4.404966 0,2.624235 a 3.4952696,3.49933 0 0 1 -0.0312,0.374891 l 0.998549,0 0,-2.999126 -0.967344,0 z" id="path-main"/>
    </g>
  </defs>
  <g id="acyl-visual">
    <use id="visible1" transform="translate(24,24) scale(1.00) translate(-24,-24)" style="fill:url(#acyl-gradient)" xlink:href="#acyl-drawing"/>
  </g>
</svg>
