<svg xmlns="http://www.w3.org/2000/svg" xmlns:xlink="http://www.w3.org/1999/xlink" width="48" height="48">
  <defs id="acyl-settings">
    <linearGradient x1="0%" y1="0%" x2="0%" y2="100%" id="acyl-gradient">
      <stop offset="0%" style="stop-color:#8FA1B3;stop-opacity:1.000000"/>
    </linearGradient>
    <g id="acyl-filter">
  </g>
    <g id="acyl-drawing">
      <path d="M 7.463576,3.654523 C 4.4686793,3.654523 2,6.123203 2,9.1181 L 2,38.53642 C 2,41.53132 4.4686793,44 7.463576,44 l 33.072848,0 C 43.531322,44 46,41.53132 46,38.53642 L 46,9.1181 C 46,6.123203 43.531322,3.654523 40.536424,3.654523 z m 0,3.88521 33.072848,0 c 0.909694,0 1.578366,0.668673 1.578366,1.578367 l 0,29.41832 c 0,0.90969 -0.668672,1.57837 -1.578366,1.57837 l -33.072848,0 c -0.909694,0 -1.578366,-0.66868 -1.578366,-1.57837 l 0,-29.41832 c 0,-0.909694 0.668672,-1.578367 1.578366,-1.578367 z m 1.809051,3.205298 0,11.412804 13.027594,0 0,-11.412804 z m 16.427152,0 0,11.412804 13.027594,0 0,-11.412804 z m -14.902299,1.626932 9.838473,0 0,7.818984 -9.838473,0 z m 0.631347,1.541942 0,5.742826 8.563639,0 0,-5.742826 z m -2.1562,11.594923 0,11.412802 13.027594,0 0,-11.412802 z m 16.427152,0 0,11.412802 13.027594,0 0,-11.412802 z" id="path-main"/>
    </g>
  </defs>
  <g id="acyl-visual">
    <use id="visible1" transform="translate(24,24) scale(1.00) translate(-24,-24)" style="fill:url(#acyl-gradient)" xlink:href="#acyl-drawing"/>
  </g>
</svg>
