<svg xmlns="http://www.w3.org/2000/svg" xmlns:xlink="http://www.w3.org/1999/xlink" width="48" height="48">
  <defs id="acyl-settings">
    <linearGradient x1="0%" y1="0%" x2="0%" y2="100%" id="acyl-gradient">
      <stop offset="0%" style="stop-color:#8FA1B3;stop-opacity:1.000000"/>
    </linearGradient>
    <g id="acyl-filter">
  </g>
    <g id="acyl-drawing">
      <path d="m 14.202516,2 c -2.073545,0 -3.666667,1.7237829 -3.666667,3.8671875 l 0,27.1276045 C 10.535849,44.538187 17.869182,46 25.202516,46 32.535849,46 39.869182,44.538185 39.869182,32.994792 l 0,-27.1276045 C 39.869182,3.7237827 38.276061,2 36.202516,2 l -22,0 z m 3.4375,5.5 15.125,0 c 1.445798,0 2.520833,1.412978 2.520833,2.520833 l 0,15.125 c 0,1.324681 -1.351957,2.520834 -2.520833,2.520834 l -15.125,0 c -1.71438,0 -2.520834,-1.412979 -2.520834,-2.520834 l 0,-15.125 C 15.119182,8.912978 16.244999,7.5 17.640016,7.5 z m 4.8125,24.75 5.5,0 0,11 -5.5,0 0,-11 z m -7.877604,1.833333 3.666666,0 0,7.333334 c 0,3.146299 -5.5,-7.333334 -3.666666,-7.333334 z m 17.960937,0 3.666667,0 c 1.833333,0 -3.666667,10.479633 -3.666667,7.333334 l 0,-7.333334 z" id="path-main"/>
    </g>
  </defs>
  <g id="acyl-visual">
    <use id="visible1" transform="translate(24,24) scale(1.00) translate(-24,-24)" style="fill:url(#acyl-gradient)" xlink:href="#acyl-drawing"/>
  </g>
</svg>
