<svg xmlns="http://www.w3.org/2000/svg" xmlns:xlink="http://www.w3.org/1999/xlink" width="48" height="48">
  <defs id="acyl-settings">
    <linearGradient x1="0%" y1="0%" x2="0%" y2="100%" id="acyl-gradient">
      <stop offset="0%" style="stop-color:#8FA1B3;stop-opacity:1.000000"/>
    </linearGradient>
    <g id="acyl-filter">
  </g>
    <g id="acyl-drawing">
      <path id="path-main" d="M 11.19801,2.0252243 C 9.1500393,2.1914083 7.1572079,3.2148841 5.4318237,5.407899 -8.3893059,22.974984 24,46 24,46 24,46 56.389307,22.974984 42.568176,5.407899 35.666636,-3.3641634 24.21751,6.9443002 24,13.283188 23.836866,8.5290226 17.341919,1.526672 11.19801,2.0252243 z"/>
    </g>
  </defs>
  <g id="acyl-visual">
    <use id="visible1" transform="translate(24,24) scale(1.00) translate(-24,-24)" style="fill:url(#acyl-gradient)" xlink:href="#acyl-drawing"/>
  </g>
</svg>
