<svg xmlns="http://www.w3.org/2000/svg" xmlns:xlink="http://www.w3.org/1999/xlink" width="48" height="48">
  <defs id="acyl-settings">
    <linearGradient x1="0%" y1="0%" x2="0%" y2="100%" id="acyl-gradient">
      <stop offset="0%" style="stop-color:#8FA1B3;stop-opacity:1.000000"/>
    </linearGradient>
    <g id="acyl-filter">
  </g>
    <g id="acyl-drawing">
      <path d="M 36.5,4.49375 C 35.032083,4.57212 33.953372,5.619585 33.875,7.0875 l 0,14.28125 C 34.555784,21.241183 35.251568,21.15 35.96875,21.15 c 0.146423,0 0.292373,0.02574 0.4375,0.03125 l 0,-14.09375 C 36.32788,7.15042 36.562914,6.946633 36.5,7.025 l 5,0 c 0.397051,0 0.71875,-0.580063 0.71875,-1.28125 0,-0.701187 -0.321699,-1.25 -0.71875,-1.25 l -5,0 z M 3.25,8.93125 C 2.548812,8.93125 2,9.511313 2,10.2125 l 0,16.5 c 0,0.70119 0.548812,1.25 1.25,1.25 l 22.28125,0 c 1.421486,-3.128784 4.175139,-5.513541 7.53125,-6.40625 l 0,-12.625 -29.8125,0 z m 33.90625,6.21875 0,3.0625 0.4375,0 c 0.483489,0 0.875,-0.42277 0.875,-0.90625 l 0,-1.28125 c 0,-0.48349 -0.391511,-0.875 -0.875,-0.875 l -0.4375,0 z m 0,4.71875 0,1.34375 c 0.452639,0.04665 0.876658,0.151728 1.3125,0.25 l 0,-0.71875 c 0,-0.48349 -0.391511,-0.875 -0.875,-0.875 l -0.4375,0 z M 35.96875,22.65 c -5.533006,0 -10,4.53547 -10,10.125 0,5.58954 4.466994,10.125 10,10.125 C 41.501756,42.9 46,38.36454 46,32.775 46,27.18547 41.501756,22.65 35.96875,22.65 z m -0.1875,2.84375 c 0.429126,2e-5 0.820512,0.16799 1.125,0.46875 0.0024,0.002 0.02888,-0.002 0.03125,0 0.309886,0.29815 0.468747,0.68813 0.46875,1.125 -3e-6,0.44626 -0.157801,0.84531 -0.46875,1.15625 -0.311644,0.30386 -0.738744,0.46876 -1.1875,0.46875 -0.44699,1e-5 -0.82808,-0.14057 -1.125,-0.4375 -0.298013,-0.30584 -0.437502,-0.71354 -0.4375,-1.15625 -2e-6,-0.45656 0.129299,-0.85594 0.4375,-1.15625 0.304449,-0.29663 0.703276,-0.46873 1.15625,-0.46875 z m -18.46875,3.125 0,3.375 1.375,0 0,-3.375 -1.375,0 z m 1.9375,0 0,3.375 1.40625,0 0,-3.375 -1.40625,0 z m 2,0 0,3.375 1.375,0 0,-3.375 -1.375,0 z m 1.96875,0 0,3.375 1.28125,0 C 24.52439,31.625398 24.56719,31.258453 24.625,30.9 l 0,-2.28125 -1.40625,0 z m 1.96875,0 0,0.1875 c 0.02262,-0.06237 0.03886,-0.125632 0.0625,-0.1875 l -0.0625,0 z m 11.5625,0.9375 c 0.184002,1e-5 0.374799,0.06233 0.5,0.1875 0.125201,0.1252 0.156246,0.316 0.15625,0.5 -4e-6,0.16244 -0.02148,0.32707 -0.0625,0.59375 -0.03985,0.25247 -0.06251,0.44408 -0.0625,0.5625 0,0.4547 -0.01752,1.15238 -0.03125,2.0625 -0.0068,0.90313 0,1.58124 0,2.03125 -3.7e-5,1.06539 0.01116,1.79914 0.03125,2.1875 0.02452,0.41089 0.155814,0.60661 0.375,0.71875 0.247155,0.0579 0.50052,0.12508 0.75,0.1875 0.165003,0.0389 0.334273,0.09488 0.4375,0.21875 0.105429,0.12651 0.156246,0.29859 0.15625,0.46875 0,0.14971 -0.08016,0.30304 -0.1875,0.40625 -0.107336,0.10321 -0.241158,0.16535 -0.40625,0.21875 -0.33018,0.1068 -0.784847,0.15625 -1.375,0.15625 -1.262301,0 -2.339514,-0.0213 -3.21875,-0.0625 -0.240941,-0.0115 -0.432074,-0.06717 -0.59375,-0.1875 -0.161676,-0.12031 -0.250001,-0.32475 -0.25,-0.53125 -10e-7,-0.17779 0.04195,-0.34026 0.15625,-0.46875 0.114296,-0.12849 0.287675,-0.20885 0.46875,-0.25 0.250116,-0.0583 0.427557,-0.09291 0.5625,-0.125 0.06747,-0.016 0.120373,-0.02175 0.15625,-0.03125 0.02153,-0.006 0.02588,0.002 0.03125,0 0.0036,-10e-4 0.01534,-0.03885 0,-0.03125 0.206085,-0.12489 0.343748,-0.36674 0.34375,-0.84375 -4e-6,-0.3918 -0.0069,-0.97676 0,-1.75 0.0068,-0.7731 0,-1.36179 0,-1.75 -4e-6,-0.94883 -0.01154,-1.57266 -0.03125,-1.875 C 34.64495,31.96075 34.5957,31.84091 34.5,31.74375 34.4043,31.64665 34.261353,31.56739 34.03125,31.525 33.754427,31.4733 33.51439,31.37556 33.34375,31.24375 33.17311,31.11195 33.0625,30.92514 33.0625,30.7125 c 0,-0.17254 0.06512,-0.34828 0.1875,-0.46875 0.122382,-0.12048 0.312383,-0.19427 0.5,-0.21875 a 0.21853406,0.21853406 0 0 1 0.0625,0.03125 c 0.0022,1.6e-4 0.02819,-2.1e-4 0.03125,0 0.01856,0.001 0.03523,-8.7e-4 0.0625,0 0.124236,0.004 0.331982,1e-5 0.625,0 0.222752,1e-5 0.588771,-0.05866 1.0625,-0.21875 0.502499,-0.16749 0.873064,-0.28124 1.15625,-0.28125 z" id="path-main"/>
    </g>
  </defs>
  <g id="acyl-visual">
    <use id="visible1" transform="translate(24,24) scale(1.00) translate(-24,-24)" style="fill:url(#acyl-gradient)" xlink:href="#acyl-drawing"/>
  </g>
</svg>
