<svg xmlns="http://www.w3.org/2000/svg" xmlns:xlink="http://www.w3.org/1999/xlink" width="48" height="48">
  <defs id="acyl-settings">
    <linearGradient x1="0%" y1="0%" x2="0%" y2="100%" id="acyl-gradient">
      <stop offset="0%" style="stop-color:#8FA1B3;stop-opacity:1.000000"/>
    </linearGradient>
    <g id="acyl-filter">
  </g>
    <g id="acyl-drawing">
      <path d="m 31.674121,2 c -1.636058,0 -2.998674,1.350947 -2.998674,2.987006 l 0,4.970565 C 28.43257,9.892221 28.178882,9.852559 27.917028,9.852559 l -8.59931,0 c -1.636059,0 -2.987006,1.362615 -2.987006,2.998674 l 0,13.091487 c 0,0.38246 0.07599,0.74744 0.210024,1.08512 -0.239692,-0.0635 -0.48869,-0.10501 -0.746752,-0.10501 l -8.59931,0 c -1.636059,0 -2.998674,1.36262 -2.998674,2.99868 l 0,13.07982 C 4.196,44.63738 5.558615,46 7.194674,46 l 8.59931,0 c 1.636059,0 2.987006,-1.36262 2.987006,-2.99867 l 0,-13.07982 c 0,-0.38643 -0.07334,-0.75523 -0.210024,-1.0968 0.239692,0.063 0.48869,0.10502 0.746752,0.10502 l 8.59931,0 c 0.261854,0 0.515542,-0.0402 0.758419,-0.10502 l 0,5.869 c 0,1.63606 1.362616,2.99868 2.998674,2.99868 l 8.599311,0 c 1.636057,0 2.987005,-1.36262 2.987005,-2.99868 l 0,-13.079815 c 0,-0.66015 -0.225186,-1.273978 -0.595067,-1.773535 0.368074,-0.496575 0.595067,-1.1035 0.595067,-1.761867 l 0,-13.091487 C 43.260437,3.350947 41.909489,2 40.273432,2 l -8.599311,0 z m 0,2.450278 8.599311,0 c 0.319583,0 0.536727,0.217144 0.536727,0.536728 l 0,13.091487 c 0,0.319584 -0.217144,0.536728 -0.536727,0.536728 l -8.599311,0 c -0.319584,0 -0.536727,-0.217144 -0.536727,-0.536728 l 0,-13.091487 c 0,-0.319584 0.217143,-0.536728 0.536727,-0.536728 z m 4.328825,1.621851 a 0.73594103,0.73594103 0 0 0 -0.653407,0.746752 l 0,5.355608 -2.660302,0 a 0.73594103,0.73594103 0 0 0 -0.07001,0 0.73594103,0.73594103 0 0 0 0.07001,1.470167 l 2.660302,0 0,2.660302 a 0.73594103,0.73594103 0 1 0 1.470167,0 l 0,-6.055688 2.368602,0 a 0.73594103,0.73594103 0 1 0 0,-1.470167 l -2.368602,0 0,-1.960222 a 0.73594103,0.73594103 0 0 0 -0.746752,-0.746752 0.73594103,0.73594103 0 0 0 -0.07001,0 z m -16.685228,6.242376 8.59931,0 c 0.319584,0 0.536728,0.217143 0.536728,0.536728 l 0,13.091487 c 0,0.31958 -0.217144,0.53673 -0.536728,0.53673 l -8.59931,0 c -0.319585,0 -0.536728,-0.21715 -0.536728,-0.53673 l 0,-13.091487 c 0,-0.319585 0.217143,-0.536728 0.536728,-0.536728 z m 4.398833,1.551843 a 0.73594103,0.73594103 0 0 0 -0.653408,0.746751 l 0,5.355609 -2.660302,0 a 0.73594103,0.73594103 0 0 0 -0.07001,0 0.73594103,0.73594103 0 0 0 0.07001,1.470167 l 2.660302,0 0,2.660305 a 0.73594103,0.73594103 0 1 0 1.470167,0 l 0,-6.055691 2.368603,0 a 0.73594103,0.73594103 0 1 0 0,-1.470167 l -2.368603,0 0,-1.960223 a 0.73594103,0.73594103 0 0 0 -0.816759,-0.746751 z m 7.95757,7.199151 8.599311,0 c 0.319583,0 0.536727,0.228811 0.536727,0.548396 l 0,13.079815 c 0,0.31959 -0.217144,0.53673 -0.536727,0.53673 l -8.599311,0 c -0.319584,0 -0.536727,-0.21714 -0.536727,-0.53673 l 0,-13.079815 c 0,-0.319585 0.217143,-0.548396 0.536727,-0.548396 z m 1.446831,1.598515 a 0.73594103,0.73594103 0 0 0 0.07001,1.470166 l 5.588969,0 a 0.73594103,0.73594103 0 1 0 0,-1.470166 l -5.588969,0 a 0.73594103,0.73594103 0 0 0 -0.07001,0 z m 0,2.776986 a 0.73594103,0.73594103 0 0 0 0.07001,1.47016 l 5.588969,0 a 0.73594103,0.73594103 0 1 0 0,-1.47016 l -5.588969,0 a 0.73594103,0.73594103 0 0 0 -0.07001,0 z m 0,2.78865 a 0.73594103,0.73594103 0 0 0 0.07001,1.47016 l 5.588969,0 a 0.73594103,0.73594103 0 1 0 0,-1.47016 l -5.588969,0 a 0.73594103,0.73594103 0 0 0 -0.07001,0 z m -25.926278,1.15513 8.59931,0 c 0.319584,0 0.536728,0.21714 0.536728,0.53673 l 0,13.07982 c 0,0.31958 -0.217144,0.54839 -0.536728,0.54839 l -8.59931,0 c -0.319584,0 -0.536728,-0.22881 -0.536728,-0.54839 l 0,-13.07982 c 0,-0.31959 0.217144,-0.53673 0.536728,-0.53673 z m 1.411827,1.27181 a 0.73594103,0.73594103 0 0 0 0.07001,1.47017 l 5.588968,0 a 0.73594103,0.73594103 0 1 0 0,-1.47017 l -5.588968,0 a 0.73594103,0.73594103 0 0 0 -0.07001,0 z m 0,2.77698 a 0.73594103,0.73594103 0 0 0 0.07001,1.47017 l 5.588968,0 a 0.73594103,0.73594103 0 1 0 0,-1.47017 l -5.588968,0 a 0.73594103,0.73594103 0 0 0 -0.07001,0 z m 0,2.77698 a 0.74174645,0.74174645 0 1 0 0.07001,1.48184 l 5.588968,0 a 0.74092,0.74092 0 0 0 0,-1.48184 l -5.588968,0 a 0.7409175,0.7409175 0 0 0 -0.07001,0 z" id="path-main"/>
    </g>
  </defs>
  <g id="acyl-visual">
    <use id="visible1" transform="translate(24,24) scale(1.00) translate(-24,-24)" style="fill:url(#acyl-gradient)" xlink:href="#acyl-drawing"/>
  </g>
</svg>
