<svg xmlns="http://www.w3.org/2000/svg" xmlns:xlink="http://www.w3.org/1999/xlink" width="48" height="48">
  <defs id="acyl-settings">
    <linearGradient x1="0%" y1="0%" x2="0%" y2="100%" id="acyl-gradient">
      <stop offset="0%" style="stop-color:#8FA1B3;stop-opacity:1.000000"/>
    </linearGradient>
    <g id="acyl-filter">
  </g>
    <g id="acyl-drawing">
      <path id="path-main" d="M 16.25 8.875 C 11.681578 8.875 8.40625 11.624501 8.40625 16.09375 L 8.40625 20 L 7.125 20 C 5.8197372 20 5.15625 20.659291 5.15625 21.96875 L 5.15625 33.09375 C 5.15625 33.735598 5.8197372 35.0625 7.125 35.0625 L 26.28125 35.0625 C 27.335891 35.0563 28 33.735597 28 33.09375 L 28 21.96875 C 28 20.659291 27.336513 20 26.03125 20 L 24.71875 20 L 24.71875 16.09375 C 24.71875 11.510631 21.474674 8.875 16.90625 8.875 L 16.25 8.875 z M 35.21875 9.25 C 34.318511 9.3515567 33.648443 10.162261 33.75 11.0625 C 33.851557 11.962739 34.662261 12.601557 35.5625 12.5 C 36.462739 12.398443 37.132807 11.587739 37.03125 10.6875 C 36.929693 9.787261 36.118989 9.1484433 35.21875 9.25 z M 16.25 12.15625 L 16.90625 12.15625 C 21.474674 12.15625 21.46875 16.06554 21.46875 17.375 L 21.46875 20 L 11.6875 20 L 11.6875 17.375 C 11.6875 16.06554 11.681578 12.15625 16.25 12.15625 z M 40.125 16.3125 C 38.866225 16.454503 37.982997 17.616225 38.125 18.875 C 38.267003 20.133775 39.397475 21.017003 40.65625 20.875 C 41.915025 20.732997 42.829503 19.602525 42.6875 18.34375 C 42.545497 17.084975 41.383775 16.170497 40.125 16.3125 z M 39.5625 26.28125 C 37.896889 26.469149 36.687101 27.990639 36.875 29.65625 C 37.062899 31.321861 38.584389 32.500399 40.25 32.3125 C 41.915611 32.124601 43.094149 30.634361 42.90625 28.96875 C 42.718351 27.303139 41.228111 26.093351 39.5625 26.28125 z M 33.84375 35.84375 C 31.757867 35.84375 30.09375 37.539117 30.09375 39.625 C 30.09375 41.710883 31.757867 43.40625 33.84375 43.40625 C 35.929633 43.40625 37.625 41.710883 37.625 39.625 C 37.625 37.539117 35.929633 35.84375 33.84375 35.84375 z M 21.78125 37.59375 C 19.182887 37.886873 17.300627 40.245387 17.59375 42.84375 C 17.886873 45.442113 20.245387 47.293123 22.84375 47 C 25.442113 46.706877 27.293123 44.379613 27 41.78125 C 26.706877 39.182887 24.379613 37.300627 21.78125 37.59375 z "/>
    </g>
  </defs>
  <g id="acyl-visual">
    <use id="visible1" transform="translate(24,24) scale(1.00) translate(-24,-24)" style="fill:url(#acyl-gradient)" xlink:href="#acyl-drawing"/>
  </g>
</svg>
