<svg xmlns="http://www.w3.org/2000/svg" xmlns:xlink="http://www.w3.org/1999/xlink" width="48" height="48">
  <defs id="acyl-settings">
    <linearGradient x1="0%" y1="0%" x2="0%" y2="100%" id="acyl-gradient">
      <stop offset="0%" style="stop-color:#8FA1B3;stop-opacity:1.000000"/>
    </linearGradient>
    <g id="acyl-filter">
  </g>
    <g id="acyl-drawing">
      <path d="m 25.927769,5.7850568 c -0.270825,-6.79e-4 -0.587758,0.108974 -0.894637,0.363921 L 13.08441,16.08097 c -0.532967,0.442775 -0.762176,0.515554 -1.501172,0.515554 l -7.687819,0 C 2.841157,16.596524 2,17.437674 2,18.491943 l 0,12.297479 c 0,1.054268 0.841157,1.895419 1.895419,1.895419 l 7.687819,0 c 0.738996,0 0.968205,0.07278 1.501172,0.515553 l 11.948722,9.931992 c 0.818344,0.67986 1.698295,0.35208 1.698295,-0.4549 l 0,-36.0736082 c 0,-0.50436 -0.352282,-0.817768 -0.803658,-0.818821 z m 15.360476,3.6088772 -2.820384,2.820381 c 4.850105,7.582749 4.854673,17.317498 0,24.898224 l 2.805221,2.790057 c 6.294033,-9.180002 6.306013,-21.327147 0.01516,-30.508662 z m -6.808345,6.79318 -2.774894,2.790056 c 2.524857,3.382172 2.524857,7.990342 0,11.372514 l 2.759731,2.75973 c 3.997954,-4.916025 4.009093,-12.004097 0.01516,-16.9223 z" id="path-main"/>
    </g>
  </defs>
  <g id="acyl-visual">
    <use id="visible1" transform="translate(24,24) scale(1.00) translate(-24,-24)" style="fill:url(#acyl-gradient)" xlink:href="#acyl-drawing"/>
  </g>
</svg>
