<svg xmlns="http://www.w3.org/2000/svg" xmlns:xlink="http://www.w3.org/1999/xlink" width="48" height="48">
  <defs id="acyl-settings">
    <linearGradient x1="0%" y1="0%" x2="0%" y2="100%" id="acyl-gradient">
      <stop offset="0%" style="stop-color:#8FA1B3;stop-opacity:1.000000"/>
    </linearGradient>
    <g id="acyl-filter">
  </g>
    <g id="acyl-drawing">
      <path d="m 22.473147,2.184206 c -0.848103,-0.404953 -1.313389,-0.06755 -1.465773,0.295542 -0.162393,0.386935 -0.415608,0.698068 0.774983,1.554788 0.630571,0.453742 1.382697,0.780395 1.825659,1.418586 0.442962,0.63819 0.690789,1.431205 0.690789,2.208059 0,0.776854 -0.247827,1.569869 -0.690789,2.20806 -0.442962,0.63819 -1.097867,1.146885 -1.825659,1.418586 -1.156664,0.431808 -2.570709,0.310958 -3.935033,-0.09869 C 16.470847,10.775845 15.08372,10.084157 13.529889,9.560847 11.967017,9.034493 10.178847,8.684304 8.3983093,9.153775 7.5030343,9.38983 6.6485923,9.82532 5.9558743,10.510683 c -0.697702,0.690295 -1.202353,1.605499 -1.319901,2.627468 -0.146974,1.277799 0.320144,2.497313 1.073191,3.429276 0.743155,0.919722 1.732037,1.545341 2.738487,1.96135 2.0023907,0.827673 4.0364247,0.90496 5.7483567,1.393914 2.051063,0.585816 3.316676,1.209986 4.724507,2.812501 l 2.060033,2.060033 c 1.191664,1.191664 1.598314,4.20111 2.701481,5.304275 l 3.219573,3.21958 c 0.919305,0.9193 1.578052,1.7484 2.405428,2.20805 0.827375,0.45966 1.270559,-0.18503 1.270559,-0.18503 l 8.104442,8.09211 0.542763,-0.54276 0.826482,2.09704 2.479439,1.01151 0.5551,-0.54276 0.542764,-0.5551 -0.999177,-2.49178 -2.109377,-0.81415 0.542764,-0.55509 -8.092107,-8.09211 c 0,0 0.644686,-0.45552 0.185032,-1.2829 -0.459652,-0.82737 -1.288753,-1.47378 -2.208059,-2.393088 L 27.728082,26.053454 C 26.624915,24.950287 23.564363,24.492531 22.423805,23.351973 L 20.363772,21.29194 c -1.662645,-1.892565 -3.202702,-2.577068 -5.625001,-3.268915 -2.012609,-0.574833 -3.961314,-0.66792 -5.5386527,-1.319902 -0.783414,-0.323818 -1.474942,-0.782538 -1.949013,-1.369243 -0.464179,-0.574464 -0.728116,-1.315094 -0.653783,-1.961349 0.05948,-0.517129 0.336523,-1.056268 0.740132,-1.455593 0.408595,-0.404257 0.96384,-0.704555 1.566612,-0.863486 1.2155547,-0.320504 2.6231527,-0.09253 3.9967107,0.370065 1.382597,0.46564 2.787982,1.175219 4.379112,1.652961 1.603284,0.481391 3.447118,0.71355 5.193258,0.06168 1.112813,-0.415438 2.085858,-1.170572 2.763158,-2.146382 0.677301,-0.975811 1.036185,-2.142762 1.036185,-3.330593 0,-1.187831 -0.358884,-2.354782 -1.036185,-3.330593 L 25.223965,4.31825 C 24.547166,3.349444 23.539773,2.6935 22.473143,2.184203 z" id="path-main"/>
    </g>
  </defs>
  <g id="acyl-visual">
    <use id="visible1" transform="translate(24,24) scale(1.00) translate(-24,-24)" style="fill:url(#acyl-gradient)" xlink:href="#acyl-drawing"/>
  </g>
</svg>
