<svg xmlns="http://www.w3.org/2000/svg" xmlns:xlink="http://www.w3.org/1999/xlink" width="48" height="48">
  <defs id="acyl-settings">
    <linearGradient x1="0%" y1="0%" x2="0%" y2="100%" id="acyl-gradient">
      <stop offset="0%" style="stop-color:#8FA1B3;stop-opacity:1.000000"/>
    </linearGradient>
    <g id="acyl-filter">
  </g>
    <g id="acyl-drawing">
      <path d="m 19.473718,4.7682982 -8.487902,32.6200608 -5.6210326,0 C 1.9148645,37.388359 2,37.5954 2,40.854641 c 0,3.178776 0.031328,3.123087 3.3647834,3.123087 l 37.2704326,0 c 3.409153,0 3.364784,-0.01455 3.364784,-3.294684 0,-3.28013 -0.12636,-3.294685 -3.364784,-3.294685 l -5.839579,0 -8.068765,-32.6200608 c -2.088146,-1.0468606 -7.380651,-1.0016861 -9.253154,0 z" id="path-main"/>
    </g>
  </defs>
  <g id="acyl-visual">
    <use id="visible1" transform="translate(24,24) scale(1.00) translate(-24,-24)" style="fill:url(#acyl-gradient)" xlink:href="#acyl-drawing"/>
  </g>
</svg>
