<svg xmlns="http://www.w3.org/2000/svg" xmlns:xlink="http://www.w3.org/1999/xlink" width="48" height="48">
  <defs id="acyl-settings">
    <linearGradient x1="0%" y1="0%" x2="0%" y2="100%" id="acyl-gradient">
      <stop offset="0%" style="stop-color:#8FA1B3;stop-opacity:1.000000"/>
    </linearGradient>
    <g id="acyl-filter">
  </g>
    <g id="acyl-drawing">
      <path d="m 11.355483,2 c 1.581939,0 2.855485,1.323807 2.855485,2.98913 l 0,38.02174 C 14.210968,44.676193 12.937422,46 11.355483,46 9.773546,46 8.5,44.676193 8.5,43.01087 L 8.5,4.98913 C 8.5,3.323807 9.773546,2 11.355483,2 z m 25.282928,0.777174 c 0.729913,0 1.46333,0.274895 2.022634,0.836956 1.118607,1.124124 1.118607,2.941094 0,4.065218 L 22.59895,23.820652 38.661045,39.961956 c 1.118607,1.124124 1.118607,2.941094 0,4.065218 -1.118607,1.124123 -2.926661,1.124123 -4.045269,0 L 16.887983,26.211956 c -0.643741,-0.646916 -0.870559,-1.551533 -0.77336,-2.391304 -0.109512,-0.850885 0.120271,-1.735006 0.77336,-2.391304 L 34.615776,3.61413 C 35.17508,3.052069 35.908497,2.777174 36.638411,2.777174 z" id="path-main"/>
    </g>
  </defs>
  <g id="acyl-visual">
    <use id="visible1" transform="translate(24,24) scale(1.00) translate(-24,-24)" style="fill:url(#acyl-gradient)" xlink:href="#acyl-drawing"/>
  </g>
</svg>
