<svg xmlns="http://www.w3.org/2000/svg" xmlns:xlink="http://www.w3.org/1999/xlink" width="48" height="48">
  <defs id="acyl-settings">
    <linearGradient x1="0%" y1="0%" x2="0%" y2="100%" id="acyl-gradient">
      <stop offset="0%" style="stop-color:#8FA1B3;stop-opacity:1.000000"/>
    </linearGradient>
    <g id="acyl-filter">
  </g>
    <g id="acyl-drawing">
      <path d="m 3.8445135,7.1333443 c -1.0203599,0 -1.8433542,0.8229963 -1.8433542,1.8433543 l 0,30.0560474 c 0,1.020361 0.8229943,1.843354 1.8433542,1.843354 l 19.2146245,0 0,0.437406 c -0.587545,0.26036 -1.077362,0.742658 -1.312218,1.343462 l -18.7459754,0 c -0.030524,-0.0015 -0.063206,-0.0015 -0.09373,0 -0.5397457,0.0253 -0.9313561,0.522526 -0.9060554,1.062272 0.0253,0.539746 0.4600396,0.931356 0.9997853,0.906055 l 18.8084615,0 c 0.397025,0.812638 1.253457,1.374704 2.218274,1.374705 0.964817,0 1.790006,-0.562067 2.18703,-1.374705 l 18.777219,0 c 0.352448,0.005 0.697133,-0.195467 0.874812,-0.499893 0.177678,-0.304425 0.177678,-0.664117 0,-0.968542 -0.177679,-0.304424 -0.522364,-0.504876 -0.874812,-0.499892 l -18.683489,0 c -0.234855,-0.600804 -0.724673,-1.083102 -1.312218,-1.343462 l 0,-0.437406 19.152138,0 c 1.020359,0 1.843354,-0.822993 1.843354,-1.843354 l 0,-28.243936 c 0,-1.0203599 -0.822995,-1.8433547 -1.843354,-1.8433547 l -28.462639,0 -1.624651,-1.812111 -10.2165566,0 z" id="path-main"/>
    </g>
  </defs>
  <g id="acyl-visual">
    <use id="visible1" transform="translate(24,24) scale(1.00) translate(-24,-24)" style="fill:url(#acyl-gradient)" xlink:href="#acyl-drawing"/>
  </g>
</svg>
