<svg xmlns="http://www.w3.org/2000/svg" xmlns:xlink="http://www.w3.org/1999/xlink" width="48" height="48">
  <defs id="acyl-settings">
    <linearGradient x1="0%" y1="0%" x2="0%" y2="100%" id="acyl-gradient">
      <stop offset="0%" style="stop-color:#8FA1B3;stop-opacity:1.000000"/>
    </linearGradient>
    <g id="acyl-filter">
  </g>
    <g id="acyl-drawing">
      <path d="m 24.000615,4.3756721 c -7.106484,0 -12.473507,1.8035349 -16.000223,3.6364145 C 4.4736754,9.8449658 2.586175,11.81012 2.586175,11.81012 a 2.2015876,2.2015876 0 1 0 3.2323684,2.98994 c 0,0 1.2268045,-1.362844 4.2020786,-2.909131 2.975274,-1.546288 7.60827,-3.1515592 13.979993,-3.1515592 6.336154,0 10.891766,1.5991822 13.899184,3.1515592 3.007419,1.552377 4.282889,2.909131 4.282889,2.909131 a 2.2015876,2.2015876 0 1 0 3.232368,-2.98994 c 0,0 -1.94488,-1.9655112 -5.495026,-3.7980334 C 36.369883,6.1795638 31.076412,4.3756721 24.000615,4.3756721 z m 0,10.1011519 c -5.10735,-0.09163 -8.965397,1.19167 -11.555717,2.505085 -2.5903188,1.313415 -4.0404599,2.747513 -4.0404599,2.747513 a 2.2292213,2.2292213 0 1 0 3.2323679,3.07075 c 0,0 0.796791,-0.909337 2.828323,-1.939421 2.031531,-1.030083 5.179178,-2.098381 9.535486,-2.02023 4.431246,0.07949 7.576951,1.164185 9.616296,2.181849 2.039346,1.017663 2.828323,1.858611 2.828323,1.858611 a 2.1982304,2.1982304 0 1 0 3.07075,-3.07075 c 0,0 -1.396769,-1.387787 -3.959652,-2.666704 -2.562882,-1.278916 -6.444807,-2.575013 -11.555717,-2.666703 z m -0.161618,10.343578 c -3.442203,0.03543 -5.942012,0.755581 -7.596066,1.535375 -1.654054,0.779795 -2.585894,1.777803 -2.585894,1.777803 a 2.2015876,2.2015876 0 1 0 3.232368,2.989941 c 0,0 0.215423,-0.300101 1.292947,-0.808092 1.077524,-0.507992 2.881292,-1.101935 5.737454,-1.131329 2.792024,-0.02876 4.660631,0.599645 5.818263,1.131329 1.157633,0.531683 1.454566,0.888901 1.454566,0.888901 a 2.200104,2.200104 0 1 0 3.07075,-3.151559 c 0,0 -0.950316,-0.98949 -2.666704,-1.777803 -1.716388,-0.788312 -4.329863,-1.48985 -7.757684,-1.454566 z m -2.585895,10.181961 c -1.498784,0 -2.666704,1.158481 -2.666704,2.585895 0,0.530462 0.116011,1.044039 0.404046,1.454565 l 3.232369,3.07075 c 0.47596,0.391771 1.09982,0.646474 1.777802,0.646474 0.804506,0 1.522901,-0.358899 2.020231,-0.888901 l 2.828322,-2.747513 c 0.341558,-0.432442 0.565664,-0.95297 0.565664,-1.535375 0,-1.427414 -1.167919,-2.585895 -2.666703,-2.585895 l -5.495027,0 z" id="path-main"/>
    </g>
  </defs>
  <g id="acyl-visual">
    <use id="visible1" transform="translate(24,24) scale(1.00) translate(-24,-24)" style="fill:url(#acyl-gradient)" xlink:href="#acyl-drawing"/>
  </g>
</svg>
