<svg xmlns="http://www.w3.org/2000/svg" xmlns:xlink="http://www.w3.org/1999/xlink" width="48" height="48">
  <defs id="acyl-settings">
    <linearGradient x1="0%" y1="0%" x2="0%" y2="100%" id="acyl-gradient">
      <stop offset="0%" style="stop-color:#8FA1B3;stop-opacity:1.000000"/>
    </linearGradient>
    <g id="acyl-filter">
  </g>
    <g id="acyl-drawing">
      <path id="path-main" d="m 24.5,4.6851415 c -2.789563,0 -4.344059,0.2383337 -5.375,0.625 -1.030941,0.3866663 -1.500498,0.9372695 -1.96875,1.375 l -0.3125,0.28125 c -0.04167,0.036734 -0.06707,0.078612 -0.09375,0.125 l -5.96875,0 c -0.9012457,10e-8 -1.6875,0.6918028 -1.6875,1.59375 l 0,5.5312505 -2.9375,2.75 C 6.0534494,17.063651 5.9966731,17.199914 6,17.341392 l 0,2.40625 c -3.968e-4,0.0097 -1.738e-4,0.02139 0,0.03125 l 0,22 c 1e-7,1.048439 0.8578115,1.906254 1.90625,1.90625 l 33.1875,0 C 42.142188,43.685143 43,42.827329 43,41.778892 l 0,-22 c -10e-7,-0.01119 7.25e-4,-0.02024 0,-0.03125 l 0,-2.40625 c 0.0033,-0.141478 -0.05345,-0.277741 -0.15625,-0.375 l -2.9375,-2.75 0,-5.5312505 c 0,-0.9019467 -0.786254,-1.59375 -1.6875,-1.59375 l -5.96875,0 c -0.02668,-0.046388 -0.05208,-0.088266 -0.09375,-0.125 l -0.3125,-0.28125 C 31.374119,6.2461232 30.908098,5.6964441 29.875,5.3101415 28.841902,4.9238389 27.278328,4.6851405 24.5,4.6851415 z m 0,1 c 2.721672,-9e-7 4.158098,0.2476903 5,0.5625 0.415705,0.1554433 0.574507,0.4024771 0.8125,0.59375 l -11.65625,0 c 0.238265,-0.1941772 0.393309,-0.4365275 0.8125,-0.59375 0.838383,-0.3144451 2.29811,-0.5625 5.03125,-0.5625 z m -13.71875,2.1875 27.4375,0 c 0.501592,0 0.875,0.3708877 0.875,0.8125 l 0,5.5625005 C 39.04078,14.327952 38.99921,14.42639 39,14.528892 l 0,5.21875 c 1e-5,0.09934 0.04379,0.172182 0.09375,0.25 l 0,4.96875 0,0.03125 -6.90625,6.34375 -0.34375,-0.40625 c -0.470703,-0.487098 -0.932204,-1.133439 -1.96875,-1.5625 -1.036546,-0.42906 -2.594867,-0.687501 -5.375,-0.6875 -2.79136,0 -4.340599,0.258029 -5.375,0.6875 -1.034399,0.429472 -1.499377,1.076776 -1.96875,1.5625 l -0.34375,0.40625 -6.90625,-6.5625 0,-0.03125 0,-4.75 c 0.049957,-0.07782 0.09374,-0.15066 0.09375,-0.25 l 0,-5.21875 c 8.02e-4,-0.103738 -0.035907,-0.197435 -0.09375,-0.28125 l 0,-5.5625005 c 0,-0.4416118 0.37341,-0.8125 0.875,-0.8125 z M 13.5,10.278892 c -0.277,0 -0.5,0.222999 -0.5,0.5 0,0.277 0.223,0.499999 0.5,0.5 l 10,0 c 0.277,0 0.5,-0.223001 0.5,-0.5 0,-0.277 -0.223,-0.500001 -0.5,-0.5 l -10,0 z m 18,0 c -0.277,0 -0.5,0.222999 -0.5,0.5 0,0.277 0.223,0.499999 0.5,0.5 l 4,0 c 0.277,0 0.5,-0.223001 0.5,-0.5 0,-0.277 -0.223,-0.500001 -0.5,-0.5 l -4,0 z m -18,3 c -0.277,0 -0.5,0.222999 -0.5,0.5 0,0.277 0.223,0.5 0.5,0.5 l 6,0 c 0.277,0 0.5,-0.223 0.5,-0.5 0,-0.277 -0.223,-0.500001 -0.5,-0.5 l -6,0 z m -4.5,2.40625 0,3.5625 -2,0 0,-1.6875 2,-1.875 z m 31,0 2,1.875 0,1.6875 -2,0 0,-3.5625 z m -26.5,1.59375 c -0.277,0 -0.5,0.223 -0.5,0.5 0,0.277 0.223,0.5 0.5,0.5 l 22,0 c 0.277,0 0.5,-0.223 0.5,-0.5 0,-0.277 -0.223,-0.5 -0.5,-0.5 l -22,0 z m 0,2 c -0.277,0 -0.5,0.223001 -0.5,0.5 0,0.277 0.223,0.500001 0.5,0.5 l 22,0 c 0.277,0 0.5,-0.222999 0.5,-0.5 0,-0.277 -0.223,-0.5 -0.5,-0.5 l -22,0 z m -6.5,1 2.09375,0 0,3.71875 -2.09375,-2 0,-1.71875 z m 32.90625,0 2.09375,0 0,2 -2.09375,1.9375 0,-3.9375 z m -26.40625,1 c -0.277,0 -0.5,0.223001 -0.5,0.5 0,0.277 0.223,0.500001 0.5,0.5 l 22,0 c 0.277,0 0.5,-0.222999 0.5,-0.5 0,-0.277 -0.223,-0.499999 -0.5,-0.5 l -22,0 z m -6.5,1.40625 2.09375,2.09375 7.15625,7.21875 -9.03125,10.40625 9.9375,-10.4375 c 1.879446,-2.231697 4.672901,-2.198735 7.34375,-2.25 2.825503,-0.119945 5.299743,0.211801 7.34375,2.25 l 9.9375,10.4375 -9,-10.375 9.21875,-9.03125 0,18.78125 c 0,0.242637 -0.07527,0.465966 -0.21875,0.625 -0.163135,0.180819 -0.411626,0.281251 -0.6875,0.28125 l -33.1875,0 c -0.2758736,10e-7 -0.5243652,-0.100431 -0.6875,-0.28125 C 7.07527,42.244859 7,42.02153 7,41.778892 l 0,-19.09375 z m 6.5,0.59375 c -0.277,0 -0.5,0.223001 -0.5,0.5 0,0.277 0.223,0.500001 0.5,0.5 l 22,0 c 0.277,0 0.5,-0.222999 0.5,-0.5 0,-0.277 -0.223,-0.499999 -0.5,-0.5 l -22,0 z m 0,2 c -0.277,0 -0.5,0.223001 -0.5,0.5 0,0.277 0.223,0.500001 0.5,0.5 l 22,0 c 0.277,0 0.5,-0.222999 0.5,-0.5 0,-0.277 -0.223,-0.499999 -0.5,-0.5 l -22,0 z"/>
    </g>
  </defs>
  <g id="acyl-visual">
    <use id="visible1" transform="translate(24,24) scale(1.00) translate(-24,-24)" style="fill:url(#acyl-gradient)" xlink:href="#acyl-drawing"/>
  </g>
</svg>
