<svg xmlns="http://www.w3.org/2000/svg" xmlns:xlink="http://www.w3.org/1999/xlink" width="48" height="48">
  <defs id="acyl-settings">
    <linearGradient x1="0%" y1="0%" x2="0%" y2="100%" id="acyl-gradient">
      <stop offset="0%" style="stop-color:#8FA1B3;stop-opacity:1.000000"/>
    </linearGradient>
    <g id="acyl-filter">
  </g>
    <g id="acyl-drawing">
      <path d="m 27.666667,6.5963739 c -4.129782,0 -7.667743,2.5972712 -9.548611,6.3402781 -1.059104,-0.88099 -2.411567,-1.451389 -3.895834,-1.451389 -3.373333,0 -6.1111106,2.737777 -6.1111109,6.111111 0,0.757602 0.12958,1.469216 0.3819445,2.138889 C 4.6564812,21.449503 2,25.330674 2,29.818596 c 0,6.094 4.906,11 11,11 l 22,0 c 6.094,0 11,-4.906 11,-11 0,-4.826978 -3.10134,-8.900303 -7.409722,-10.388889 0.0095,-0.208829 0.07639,-0.399664 0.07639,-0.611111 0,-6.746667 -4.928,-12.2222221 -11,-12.2222221 z M 24,13.929707 c 1.354222,0 2.444444,1.090222 2.444444,2.444445 l 0,12.222222 c 0,1.354222 -1.090222,2.444444 -2.444444,2.444444 -1.354222,0 -2.444444,-1.090222 -2.444444,-2.444444 l 0,-12.222222 c 0,-1.354223 1.090222,-2.444445 2.444444,-2.444445 z m -1.222222,19.555556 1.222222,0 1.222222,0 c 0.677111,0 1.222222,0.545111 1.222222,1.222222 l 0,1.222222 0,1.222222 c 0,0.677111 -0.545111,1.222223 -1.222222,1.222223 l -1.222222,0 -1.222222,0 c -0.677111,0 -1.222222,-0.545112 -1.222222,-1.222223 l 0,-1.222222 0,-1.222222 c 0,-0.677111 0.545111,-1.222222 1.222222,-1.222222 z" id="path-main"/>
    </g>
  </defs>
  <g id="acyl-visual">
    <use id="visible1" transform="translate(24,24) scale(1.00) translate(-24,-24)" style="fill:url(#acyl-gradient)" xlink:href="#acyl-drawing"/>
  </g>
</svg>
