<svg xmlns="http://www.w3.org/2000/svg" xmlns:xlink="http://www.w3.org/1999/xlink" width="48" height="48">
  <defs id="acyl-settings">
    <linearGradient x1="0%" y1="0%" x2="0%" y2="100%" id="acyl-gradient">
      <stop offset="0%" style="stop-color:#8FA1B3;stop-opacity:1.000000"/>
    </linearGradient>
    <g id="acyl-filter">
  </g>
    <g id="acyl-drawing">
      <path d="M 3 7 L 3 42 L 24.03125 42 L 24.03125 43.03125 C 23.430055 43.297659 22.927813 43.791489 22.6875 44.40625 L 3.53125 44.40625 C 3.5000173 44.404784 3.4687328 44.404784 3.4375 44.40625 C 2.8852154 44.432138 2.4741116 44.916465 2.5 45.46875 C 2.5258884 46.021035 2.9789653 46.432138 3.53125 46.40625 L 22.78125 46.40625 C 23.187497 47.237766 24.044019 47.812499 25.03125 47.8125 C 26.01848 47.8125 26.875002 47.237766 27.28125 46.40625 L 46.5 46.40625 C 46.860637 46.41135 47.193193 46.217748 47.375 45.90625 C 47.556807 45.594752 47.556806 45.217747 47.375 44.90625 C 47.193194 44.594753 46.860636 44.40115 46.5 44.40625 L 27.375 44.40625 C 27.134687 43.791489 26.632444 43.297659 26.03125 43.03125 L 26.03125 42 L 45 42 L 45 10.5 L 25.75 10.5 L 25.75 7 L 3 7 z M 4.75 8.75 L 24 8.75 L 24 12.25 L 43.25 12.25 L 43.25 15.75 L 20.5 15.75 L 20.5 12.25 L 4.75 12.25 L 4.75 8.75 z M 16.71875 19.46875 C 16.718751 19.468749 21.04074 23.033483 25 19.71875 C 27.992466 21.05385 29.703404 21.956475 33.15625 19.5625 C 33.386438 26.09989 33.5 30.465752 33.5 32 C 33.5 33.580266 32.701358 34.726039 29.65625 36.5 C 26.404882 38.394117 25.600164 38.654853 25.09375 39.4375 C 24.541293 38.654853 21.203403 36.840126 19.5 35.78125 C 17.796588 34.722378 16.625 33.057199 16.625 31.90625 C 16.625001 30.755301 16.71875 19.560824 16.71875 19.46875 z " id="path-main"/>
    </g>
  </defs>
  <g id="acyl-visual">
    <use id="visible1" transform="translate(24,24) scale(1.00) translate(-24,-24)" style="fill:url(#acyl-gradient)" xlink:href="#acyl-drawing"/>
  </g>
</svg>
