<svg xmlns="http://www.w3.org/2000/svg" xmlns:xlink="http://www.w3.org/1999/xlink" width="48" height="48">
  <defs id="acyl-settings">
    <linearGradient x1="0%" y1="0%" x2="0%" y2="100%" id="acyl-gradient">
      <stop offset="0%" style="stop-color:#8FA1B3;stop-opacity:1.000000"/>
    </linearGradient>
    <g id="acyl-filter">
  </g>
    <g id="acyl-drawing">
      <path id="path-main" d="M 13.09375 4.59375 C 12.693018 4.59375 12.40625 4.8950423 12.40625 5.28125 L 12.40625 41.90625 C 12.40625 42.292462 12.693018 42.59375 13.09375 42.59375 L 23.875 42.59375 L 36.40625 30.78125 L 36.40625 16.78125 L 23.5 4.59375 L 13.09375 4.59375 z M 25.53125 4.59375 L 36.40625 14.84375 L 36.40625 5.28125 C 36.40625 4.8950423 36.056977 4.59375 35.65625 4.59375 L 25.53125 4.59375 z M 25.53125 19.125 C 26.390056 19.125 27.09375 19.893999 27.09375 20.84375 C 27.09375 21.024468 26.98431 21.176005 26.9375 21.34375 C 27.233665 21.531817 27.497674 21.745636 27.75 22 C 28.055455 21.740652 28.43462 21.5625 28.84375 21.5625 C 29.824456 21.5625 30.625 22.446936 30.625 23.53125 C 30.625 23.643208 30.5795 23.740233 30.5625 23.84375 C 31.110702 24.093468 31.556564 24.4866 31.875 25.03125 C 31.966904 25.01667 32.06026 24.96875 32.15625 24.96875 C 33.118021 24.96875 33.87091 25.747031 34.0625 26.75 C 34.592228 26.848144 35.03125 27.294568 35.03125 27.90625 C 35.031251 28.586878 34.521252 29.15625 33.90625 29.15625 C 33.673773 29.15625 33.462201 29.074114 33.28125 28.9375 C 32.952403 29.202517 32.594569 29.406249 32.15625 29.40625 C 31.845991 29.40625 31.572413 29.23277 31.3125 29.09375 C 30.812226 29.560703 30.208197 29.90625 29.5 29.90625 C 28.895534 29.90625 28.368986 29.664056 27.90625 29.3125 C 27.062382 30.244314 25.940546 30.875 24.65625 30.875 C 23.692052 30.875 22.806597 30.494362 22.0625 29.9375 C 21.611856 30.333235 21.061498 30.624999 20.4375 30.625 C 19.475371 30.625 18.653536 30.033608 18.1875 29.1875 C 17.926019 29.310787 17.679711 29.406249 17.375 29.40625 C 16.678232 29.406249 16.094887 28.99469 15.6875 28.4375 C 15.456453 28.583904 15.219517 28.6875 14.9375 28.6875 C 14.078694 28.6875 13.375 27.887248 13.375 26.9375 C 13.375 25.987751 14.078694 25.218749 14.9375 25.21875 C 15.217204 25.21875 15.457754 25.324577 15.6875 25.46875 C 16.094887 24.911559 16.678231 24.499999 17.375 24.5 C 17.563883 24.5 17.701946 24.60592 17.875 24.65625 C 17.896984 24.50472 17.92322 24.359245 17.96875 24.21875 C 17.612212 23.947624 17.34375 23.56953 17.34375 23.0625 C 17.34375 22.247314 17.950596 21.5625 18.6875 21.5625 C 19.256378 21.5625 19.648887 22.005186 19.84375 22.5625 C 19.901712 22.55559 19.93662 22.53125 20 22.53125 C 20.306914 22.53125 20.57274 22.718485 20.84375 22.84375 C 21.562834 21.700589 22.667527 20.895718 23.96875 20.6875 C 24.045862 19.815107 24.723415 19.125 25.53125 19.125 z M 36.40625 32.6875 L 25.90625 42.59375 L 35.65625 42.59375 C 36.056987 42.59375 36.40625 42.292462 36.40625 41.90625 L 36.40625 32.6875 z "/>
    </g>
  </defs>
  <g id="acyl-visual">
    <use id="visible1" transform="translate(24,24) scale(1.00) translate(-24,-24)" style="fill:url(#acyl-gradient)" xlink:href="#acyl-drawing"/>
  </g>
</svg>
