<svg xmlns="http://www.w3.org/2000/svg" xmlns:xlink="http://www.w3.org/1999/xlink" width="48" height="48">
  <defs id="acyl-settings">
    <linearGradient x1="0%" y1="0%" x2="0%" y2="100%" id="acyl-gradient">
      <stop offset="0%" style="stop-color:#8FA1B3;stop-opacity:1.000000"/>
    </linearGradient>
    <g id="acyl-filter">
  </g>
    <g id="acyl-drawing">
      <path id="path-main" d="m 18.013286,2 0,0.4583333 0,10.5130207 -5.35677,0 -1.031251,0 0.687501,0.773438 10.369791,11.916666 -9.023437,0 c -2.011481,0 -3.6666672,1.644717 -3.6666672,3.638021 l 0,13.0625 C 9.9924528,44.355283 11.647639,46 13.65912,46 l 22,0 c 2.01148,0 3.666666,-1.644717 3.666666,-3.638021 l 0,-13.0625 c 0,-1.993304 -1.655186,-3.638021 -3.666666,-3.638021 l -9.052084,0 10.341146,-11.916666 0.658854,-0.773438 -1.002604,0 -5.270833,0 0,-10.5130207 L 31.333599,2 30.875265,2 18.47162,2 18.013286,2 z m -2.893229,26.554687 19.078125,0 c 1.466665,0 2.205729,0.72367 2.205729,2.177084 l 0,10.169271 c 10e-7,1.453412 -0.739062,2.205729 -2.205729,2.205729 l -19.078125,0 c -1.466667,0 -2.205729,-0.752316 -2.205729,-2.205729 l 0,-10.169271 c 0,-1.453415 0.739062,-2.177084 2.205729,-2.177084 z m 13.205729,7.992188 c -0.812533,0 -1.460937,0.655748 -1.460937,1.460937 l 0,1.460938 c 0,0.805191 0.648404,1.432292 1.460937,1.432292 l 3.666667,0 c 0.812533,0 1.460938,-0.627102 1.460937,-1.432292 l 0,-1.460938 c 0,-0.80519 -0.648404,-1.460937 -1.460937,-1.460937 l -3.666667,0 z"/>
    </g>
  </defs>
  <g id="acyl-visual">
    <use id="visible1" transform="translate(24,24) scale(1.00) translate(-24,-24)" style="fill:url(#acyl-gradient)" xlink:href="#acyl-drawing"/>
  </g>
</svg>
