<svg xmlns="http://www.w3.org/2000/svg" xmlns:xlink="http://www.w3.org/1999/xlink" width="48" height="48">
  <defs id="acyl-settings">
    <linearGradient x1="0%" y1="0%" x2="0%" y2="100%" id="acyl-gradient">
      <stop offset="0%" style="stop-color:#8FA1B3;stop-opacity:1.000000"/>
    </linearGradient>
    <g id="acyl-filter">
  </g>
    <g id="acyl-drawing">
      <path d="M 7.893631,7.3921 2,24.061831 l 4.1313198,0 1.0111621,-3.033487 6.4425481,0 0.982271,3.033487 4.16021,0 L 12.80499,7.3921 l -4.911359,0 z m 12.509521,0.173342 0,16.496389 3.842416,0 0,-1.791202 c 0.526875,0.729865 1.323724,1.267824 1.964544,1.617859 0.640792,0.342588 1.391488,0.520027 2.224556,0.520027 1.473861,0 2.693183,-0.627578 3.640184,-1.848983 0.946963,-1.228846 1.415614,-2.809089 1.415627,-4.738017 -1.3e-5,-1.928914 -0.468666,-3.487715 -1.415627,-4.709126 -0.946999,-1.22884 -2.166322,-1.848969 -3.640184,-1.848983 -0.833069,1.4e-5 -1.583764,0.170004 -2.224556,0.520027 -0.64082,0.3426 -1.437669,0.888009 -1.964544,1.617859 l 0,-5.83585 -3.842416,0 z m 21.927774,3.697964 c -2.157399,1.4e-5 -3.867154,0.571611 -5.084701,1.733421 -1.217531,1.154385 -1.820093,2.761717 -1.820092,4.824688 10e-7,2.062985 0.602562,3.691758 1.820092,4.853579 1.217546,1.154375 2.9273,1.733421 5.084701,1.733421 0.619446,0 1.207751,-0.08308 1.820092,-0.202233 C 44.770452,24.094569 45.401901,23.946021 46,23.715146 l 0,-3.293499 c -0.455688,0.364934 -0.961185,0.651634 -1.502298,0.83782 -0.534019,0.18619 -1.106457,0.288905 -1.704531,0.288903 -1.068024,3e-6 -1.886481,-0.334328 -2.48457,-0.982272 -0.590978,-0.655382 -0.895601,-1.575307 -0.8956,-2.744583 10e-7,-1.169263 0.304623,-2.067742 0.8956,-2.715692 0.598088,-0.655377 1.416545,-0.982262 2.48457,-0.982272 0.562476,1.1e-5 1.098079,0.08128 1.61786,0.260013 0.526886,0.178752 1.06919,0.465452 1.588969,0.83782 l 0,-3.264609 C 45.394781,11.725912 44.763329,11.548473 44.151018,11.436749 43.5458,11.3176 42.95749,11.26342 42.330926,11.263406 z m -31.981615,0.02889 2.195666,6.355876 -4.3624425,0 2.1667765,-6.355876 z m 16.66973,2.860144 c 0.818818,10e-6 1.421762,0.327796 1.848983,0.953382 0.434314,0.625606 0.664465,1.524087 0.664478,2.715692 -1.3e-5,1.191617 -0.230163,2.11899 -0.664478,2.744583 -0.427222,0.6256 -1.030165,0.924493 -1.848983,0.924492 -0.818816,2e-6 -1.696451,-0.298892 -2.137885,-0.924492 -0.434341,-0.63304 -0.6356,-1.560411 -0.635588,-2.744583 -1.2e-5,-1.184158 0.201247,-2.090086 0.635588,-2.715692 0.441434,-0.633036 1.319069,-0.953372 2.137885,-0.953382 z m -9.389363,12.740645 -13.7806957,7.858174 13.7806957,7.858175 0,-5.084701 28.283651,0 0,-6.471438 -28.283651,0 0,-4.16021 z" id="path-main"/>
    </g>
  </defs>
  <g id="acyl-visual">
    <use id="visible1" transform="translate(24,24) scale(1.00) translate(-24,-24)" style="fill:url(#acyl-gradient)" xlink:href="#acyl-drawing"/>
  </g>
</svg>
