<svg xmlns="http://www.w3.org/2000/svg" xmlns:xlink="http://www.w3.org/1999/xlink" width="48" height="48">
  <defs id="acyl-settings">
    <linearGradient x1="0%" y1="0%" x2="0%" y2="100%" id="acyl-gradient">
      <stop offset="0%" style="stop-color:#8FA1B3;stop-opacity:1.000000"/>
    </linearGradient>
    <g id="acyl-filter">
  </g>
    <g id="acyl-drawing">
      <path id="path-main" d="M 4.0911458,8.6666667 24,28.575521 43.908854,8.6666667 l -39.8177082,0 z M 2,10.757813 2,35.908854 14.575521,23.333333 2,10.757813 z m 44,0 L 33.424479,23.333333 46,35.908854 46,10.757813 z M 16.666667,25.424479 4.0911458,38 43.908854,38 31.333333,25.424479 24,32.757812 16.666667,25.424479 z"/>
    </g>
  </defs>
  <g id="acyl-visual">
    <use id="visible1" transform="translate(24,24) scale(1.00) translate(-24,-24)" style="fill:url(#acyl-gradient)" xlink:href="#acyl-drawing"/>
  </g>
</svg>
