<svg xmlns="http://www.w3.org/2000/svg" xmlns:xlink="http://www.w3.org/1999/xlink" width="48" height="48">
  <defs id="acyl-settings">
    <linearGradient x1="0%" y1="0%" x2="0%" y2="100%" id="acyl-gradient">
      <stop offset="0%" style="stop-color:#8FA1B3;stop-opacity:1.000000"/>
    </linearGradient>
    <g id="acyl-filter">
  </g>
    <g id="acyl-drawing">
      <path d="m 5.6666667,10 0,2 5.5000003,0 0,-2 -5.5000003,0 z m 11.0000003,0 0,2 5.5,0 0,-2 -5.5,0 z m 11,0 0,2 5.5,0 0,-2 -5.5,0 z M 2,14 l 0,6 1.8333333,0 0,-6 L 2,14 z m 12.833333,1 0,1.4375 0,0.1875 0,19.75 0,0.90625 0,0.71875 1.289063,0 0.200521,0 28.1875,0 0.20052,0 L 46,38 46,37.28125 46,36.375 46,16.625 46,16.4375 46,15 l -1.289063,0 -0.20052,0 -28.1875,0 -0.200521,0 -1.289063,0 z m 3.4375,2.15625 24.291667,0 L 30.416667,30.625 18.270833,17.15625 z m -1.489583,1.625 6.960937,7.71875 -6.960937,7.71875 0,-15.4375 z m 27.270833,0 0,15.4375 L 37.091146,26.5 44.052083,18.78125 z M 2,26 l 0,6 1.8333333,0 0,-6 L 2,26 z m 23.231771,2.125 5.184896,5.75 5.184895,-5.75 6.960938,7.71875 -24.291667,0 6.960938,-7.71875 z M 8.4166667,31 l 0,2 L 13,33 13,31 8.4166667,31 z" id="path-main"/>
    </g>
  </defs>
  <g id="acyl-visual">
    <use id="visible1" transform="translate(24,24) scale(1.00) translate(-24,-24)" style="fill:url(#acyl-gradient)" xlink:href="#acyl-drawing"/>
  </g>
</svg>
